ValueName,S7ProgramName,English,Min,Max,Unit,AK,ValueID
Dsfi01Gnrl/OA_SpfpPos01_20DrveCur,,,,,,,9070
Dsfi01Gnrl/OA_SpfpPos01_20DrveLoad,,,,,,,9071
Dsfi01Gnrl/OA_SpfpPos01_20Flow,,,,,,,9072
Cdex01Gnrl/OA_OperTimeMinu,,,,,,,9191
Cdex01Gnrl/OA_OperTimeSec,,,,,,,9192
Dows01Boil/OA_HtmcInleTmp,FSP01,dowtherm system ## actual value boiler HTM cycle inlet temperature,0.0,400.0,°C,dowtherm system,9197
Dows01Boil/OA_LiqdTmp,FSP01,dowtherm system ## actual value boiler liquid temperature,0.0,400.0,°C,dowtherm system,9198
Dows01BoilHtmc/OA_CipuPrsBhnd,FSP01,dowtherm system ## actual value boiler HTM cycle circulation pump pressure behind,0.0,10.0,bar,dowtherm system,9205
Dows01BoilHtmc/OA_CipuPrsInfr,FSP01,dowtherm system ## actual value boiler HTM cycle circulation pump pressure in front of,0.0,10.0,bar,dowtherm system,9206
Dows01Cond/OA_Cond01TmpBttm,FSP01,dowtherm system ## actual value condenser 1 temperature bottom,0.0,400.0,°C,dowtherm system,9211
Dows01Cond/OA_Cond01TmpTop,FSP01,dowtherm system ## actual value condenser 1 temperature top,0.0,400.0,°C,dowtherm system,9212
Dows01Cond/OA_Cond02TmpBttm,FSP01,dowtherm system ## actual value condenser 2 temperature bottom,0.0,400.0,°C,dowtherm system,9213
Dows01Cond/OA_Cond02TmpTop,FSP01,dowtherm system ## actual value condenser 2 temperature top,0.0,400.0,°C,dowtherm system,9214
Dows01Cond/OA_PropTmp,FSP01,dowtherm system ## actual value product pipeline temperature,0.0,400.0,°C,dowtherm system,9215
Dows01HtmcTmp/OA_Mava,FSP01,dowtherm system ## actual value HTM cycle temperature manipulated value,0.0,100.0,%,dowtherm system,9224
Dows01HtmcTmp/OA_Pvar,FSP01,dowtherm system ## actual value HTM cycle temperature process variable,0.0,320.0,°C,dowtherm system,9227
Mprp01Gnrl/OA_MtopPrs,FSP01,main product pipeline ## actual value melt take over point pressure,0.0,350.0,bar,main product pipeline,9232
Mprp01Gnrl/OA_MtopTmp,FSP01,main product pipeline ## actual value melt take over point temperature,0.0,400.0,°C,main product pipeline,9233
Speq01Gnrl/OA_Spbe01Tmp,FSP01,spinning equipment ## actual value spinning beam 1 temperature,0.0,400.0,°C,spinning equipment,9236
Speq01Gnrl/OA_Spbe02Tmp,FSP01,spinning equipment ## actual value spinning beam 2 temperature,0.0,400.0,°C,spinning equipment,9237
Speq01Gnrl/OA_Spbe03Tmp,FSP01,spinning equipment ## actual value spinning beam 3 temperature,0.0,400.0,°C,spinning equipment,9238
Speq01PolyThrp/OA_PolyFlowKgph,FSP01,spinning equipment ## actual value polymer throughput polymer flow kilogram per hour,0.0,99999.0,kg/h,spinning equipment,9242
Speq01PolyThrp/OA_PolyFlowTopd,FSP01,spinning equipment ## actual value polymer throughput polymer flow tons per day,0.0,999.0,t/d,spinning equipment,9243
Speq01PolyThrp/OA_SppuSpdPercPeri,FSP01,spinning equipment ## actual value polymer throughput spinning pump speed percent periphery,0.0,100.0,%,spinning equipment,9244
Sppo01SppuComp01/OA_Cur,FSP01,spinning position ## actual value spinning pump component 1 current,0.0,25.0,A,spinning position,9389
Sppo02SppuComp01/OA_Cur,FSP01,spinning position ## actual value spinning pump component 1 current,0.0,25.0,A,spinning position,9390
Sppo03SppuComp01/OA_Cur,FSP01,spinning position ## actual value spinning pump component 1 current,0.0,25.0,A,spinning position,9391
Sppo04SppuComp01/OA_Cur,FSP01,spinning position ## actual value spinning pump component 1 current,0.0,25.0,A,spinning position,9392
Sppo05SppuComp01/OA_Cur,FSP01,spinning position ## actual value spinning pump component 1 current,0.0,25.0,A,spinning position,9393
Sppo06SppuComp01/OA_Cur,FSP01,spinning position ## actual value spinning pump component 1 current,0.0,25.0,A,spinning position,9394
Sppo07SppuComp01/OA_Cur,FSP01,spinning position ## actual value spinning pump component 1 current,0.0,25.0,A,spinning position,9395
Sppo08SppuComp01/OA_Cur,FSP01,spinning position ## actual value spinning pump component 1 current,0.0,25.0,A,spinning position,9396
Sppo09SppuComp01/OA_Cur,FSP01,spinning position ## actual value spinning pump component 1 current,0.0,25.0,A,spinning position,9397
Sppo10SppuComp01/OA_Cur,FSP01,spinning position ## actual value spinning pump component 1 current,0.0,25.0,A,spinning position,9398
Sppo11SppuComp01/OA_Cur,FSP01,spinning position ## actual value spinning pump component 1 current,0.0,25.0,A,spinning position,9399
Sppo12SppuComp01/OA_Cur,FSP01,spinning position ## actual value spinning pump component 1 current,0.0,25.0,A,spinning position,9400
Sppo13SppuComp01/OA_Cur,FSP01,spinning position ## actual value spinning pump component 1 current,0.0,25.0,A,spinning position,9401
Sppo14SppuComp01/OA_Cur,FSP01,spinning position ## actual value spinning pump component 1 current,0.0,25.0,A,spinning position,9402
Sppo15SppuComp01/OA_Cur,FSP01,spinning position ## actual value spinning pump component 1 current,0.0,25.0,A,spinning position,9403
Sppo16SppuComp01/OA_Cur,FSP01,spinning position ## actual value spinning pump component 1 current,0.0,25.0,A,spinning position,9404
Sppo17SppuComp01/OA_Cur,FSP01,spinning position ## actual value spinning pump component 1 current,0.0,25.0,A,spinning position,9405
Sppo18SppuComp01/OA_Cur,FSP01,spinning position ## actual value spinning pump component 1 current,0.0,25.0,A,spinning position,9406
Sppo19SppuComp01/OA_Cur,FSP01,spinning position ## actual value spinning pump component 1 current,0.0,25.0,A,spinning position,9407
Sppo20SppuComp01/OA_Cur,FSP01,spinning position ## actual value spinning pump component 1 current,0.0,25.0,A,spinning position,9408
Sppo01SppuComp01/OA_Load,FSP01,spinning position ## actual value spinning pump component 1 load,0.0,100.0,%,spinning position,9409
Sppo02SppuComp01/OA_Load,FSP01,spinning position ## actual value spinning pump component 1 load,0.0,100.0,%,spinning position,9410
Sppo03SppuComp01/OA_Load,FSP01,spinning position ## actual value spinning pump component 1 load,0.0,100.0,%,spinning position,9411
Sppo04SppuComp01/OA_Load,FSP01,spinning position ## actual value spinning pump component 1 load,0.0,100.0,%,spinning position,9412
Sppo05SppuComp01/OA_Load,FSP01,spinning position ## actual value spinning pump component 1 load,0.0,100.0,%,spinning position,9413
Sppo06SppuComp01/OA_Load,FSP01,spinning position ## actual value spinning pump component 1 load,0.0,100.0,%,spinning position,9414
Sppo07SppuComp01/OA_Load,FSP01,spinning position ## actual value spinning pump component 1 load,0.0,100.0,%,spinning position,9415
Sppo08SppuComp01/OA_Load,FSP01,spinning position ## actual value spinning pump component 1 load,0.0,100.0,%,spinning position,9416
Sppo09SppuComp01/OA_Load,FSP01,spinning position ## actual value spinning pump component 1 load,0.0,100.0,%,spinning position,9417
Sppo10SppuComp01/OA_Load,FSP01,spinning position ## actual value spinning pump component 1 load,0.0,100.0,%,spinning position,9418
Sppo11SppuComp01/OA_Load,FSP01,spinning position ## actual value spinning pump component 1 load,0.0,100.0,%,spinning position,9419
Sppo12SppuComp01/OA_Load,FSP01,spinning position ## actual value spinning pump component 1 load,0.0,100.0,%,spinning position,9420
Sppo13SppuComp01/OA_Load,FSP01,spinning position ## actual value spinning pump component 1 load,0.0,100.0,%,spinning position,9421
Sppo14SppuComp01/OA_Load,FSP01,spinning position ## actual value spinning pump component 1 load,0.0,100.0,%,spinning position,9422
Sppo15SppuComp01/OA_Load,FSP01,spinning position ## actual value spinning pump component 1 load,0.0,100.0,%,spinning position,9423
Sppo16SppuComp01/OA_Load,FSP01,spinning position ## actual value spinning pump component 1 load,0.0,100.0,%,spinning position,9424
Sppo17SppuComp01/OA_Load,FSP01,spinning position ## actual value spinning pump component 1 load,0.0,100.0,%,spinning position,9425
Sppo18SppuComp01/OA_Load,FSP01,spinning position ## actual value spinning pump component 1 load,0.0,100.0,%,spinning position,9426
Sppo19SppuComp01/OA_Load,FSP01,spinning position ## actual value spinning pump component 1 load,0.0,100.0,%,spinning position,9427
Sppo20SppuComp01/OA_Load,FSP01,spinning position ## actual value spinning pump component 1 load,0.0,100.0,%,spinning position,9428
Sppo06SppuComp01/OA_PrsBhnd01,FSP01,spinning position ## actual value spinning pump component 1 pressure behind 1,0.0,350.0,bar,spinning position,9434
Sppo11SppuComp01/OA_PrsBhnd01,FSP01,spinning position ## actual value spinning pump component 1 pressure behind 1,0.0,350.0,bar,spinning position,9439
Sppo14SppuComp01/OA_PrsBhnd01,FSP01,spinning position ## actual value spinning pump component 1 pressure behind 1,0.0,350.0,bar,spinning position,9442
Sppo19SppuComp01/OA_PrsBhnd01,FSP01,spinning position ## actual value spinning pump component 1 pressure behind 1,0.0,350.0,bar,spinning position,9447
Sppo06SppuComp01/OA_PrsInfr,FSP01,spinning position ## actual value spinning pump component 1 pressure in front of,0.0,350.0,bar,spinning position,9454
Sppo14SppuComp01/OA_PrsInfr,FSP01,spinning position ## actual value spinning pump component 1 pressure in front of,0.0,350.0,bar,spinning position,9462
Sppo01SppuComp01/OA_Spd,FSP01,spinning position ## actual value spinning pump component 1 speed,0.0,40.0,rpm,spinning position,9469
Sppo02SppuComp01/OA_Spd,FSP01,spinning position ## actual value spinning pump component 1 speed,0.0,40.0,rpm,spinning position,9470
Sppo03SppuComp01/OA_Spd,FSP01,spinning position ## actual value spinning pump component 1 speed,0.0,40.0,rpm,spinning position,9471
Sppo04SppuComp01/OA_Spd,FSP01,spinning position ## actual value spinning pump component 1 speed,0.0,40.0,rpm,spinning position,9472
Sppo05SppuComp01/OA_Spd,FSP01,spinning position ## actual value spinning pump component 1 speed,0.0,40.0,rpm,spinning position,9473
Sppo06SppuComp01/OA_Spd,FSP01,spinning position ## actual value spinning pump component 1 speed,0.0,40.0,rpm,spinning position,9474
Sppo07SppuComp01/OA_Spd,FSP01,spinning position ## actual value spinning pump component 1 speed,0.0,40.0,rpm,spinning position,9475
Sppo08SppuComp01/OA_Spd,FSP01,spinning position ## actual value spinning pump component 1 speed,0.0,40.0,rpm,spinning position,9476
Sppo09SppuComp01/OA_Spd,FSP01,spinning position ## actual value spinning pump component 1 speed,0.0,40.0,rpm,spinning position,9477
Sppo10SppuComp01/OA_Spd,FSP01,spinning position ## actual value spinning pump component 1 speed,0.0,40.0,rpm,spinning position,9478
Sppo11SppuComp01/OA_Spd,FSP01,spinning position ## actual value spinning pump component 1 speed,0.0,40.0,rpm,spinning position,9479
Sppo12SppuComp01/OA_Spd,FSP01,spinning position ## actual value spinning pump component 1 speed,0.0,40.0,rpm,spinning position,9480
Sppo13SppuComp01/OA_Spd,FSP01,spinning position ## actual value spinning pump component 1 speed,0.0,40.0,rpm,spinning position,9481
Sppo14SppuComp01/OA_Spd,FSP01,spinning position ## actual value spinning pump component 1 speed,0.0,40.0,rpm,spinning position,9482
Sppo15SppuComp01/OA_Spd,FSP01,spinning position ## actual value spinning pump component 1 speed,0.0,40.0,rpm,spinning position,9483
Sppo16SppuComp01/OA_Spd,FSP01,spinning position ## actual value spinning pump component 1 speed,0.0,40.0,rpm,spinning position,9484
Sppo17SppuComp01/OA_Spd,FSP01,spinning position ## actual value spinning pump component 1 speed,0.0,40.0,rpm,spinning position,9485
Sppo18SppuComp01/OA_Spd,FSP01,spinning position ## actual value spinning pump component 1 speed,0.0,40.0,rpm,spinning position,9486
Sppo19SppuComp01/OA_Spd,FSP01,spinning position ## actual value spinning pump component 1 speed,0.0,40.0,rpm,spinning position,9487
Sppo20SppuComp01/OA_Spd,FSP01,spinning position ## actual value spinning pump component 1 speed,0.0,40.0,rpm,spinning position,9488
Sppo06SppuComp01/OA_TmpMeltBhnd01,FSP01,spinning position ## actual value spinning pump component 1 temperature melt behind 1,0.0,400.0,°C,spinning position,9494
Sppo14SppuComp01/OA_TmpMeltBhnd01,FSP01,spinning position ## actual value spinning pump component 1 temperature melt behind 1,0.0,400.0,°C,spinning position,9502
Sppo06SppuComp01/OA_TmpMeltInfr,FSP01,spinning position ## actual value spinning pump component 1 temperature melt in front of,0.0,400.0,°C,spinning position,9514
Sppo14SppuComp01/OA_TmpMeltInfr,FSP01,spinning position ## actual value spinning pump component 1 temperature melt in front of,0.0,400.0,°C,spinning position,9522
Fdom01ActVal/OA_CtrvCur,FDM01,fiber draw-off machine ## actual value cross traversing current,0.0,9.0,A,can traversing unit,9536
Fdom01ActVal/OA_CtrvLoad,FDM01,fiber draw-off machine ## actual value cross traversing load,0.0,100.0,%,can traversing unit,9537
Fdom01ActVal/OA_CtrvPos,FDM01,fiber draw-off machine ## actual value cross traversing position,-5000.0,5000.0,mm,can traversing unit,9538
Fdom01ActVal/OA_CtrvSpd,FDM01,fiber draw-off machine ## actual value cross traversing speed,0.02,2.0,m/min,can traversing unit,9539
Fdom01ActVal/OA_Fera1Cur,FDM01,fiber draw-off machine ## actual value feed roller assembly 1 current,0.0,50.0,A,feed roller assembly,9540
Fdom01ActVal/OA_Fera1Spd,FDM01,fiber draw-off machine ## actual value feed roller assembly 1 speed,300.0,2000.0,m/min,feed roller assembly,9542
Fdom01ActVal/OA_Fera2Cur,FDM01,fiber draw-off machine ## actual value feed roller assembly 2 current,0.0,50.0,A,feed roller assembly,9543
Fdom01ActVal/OA_Fera2Load,FDM01,fiber draw-off machine ## actual value feed roller assembly 2 load,0.0,100.0,%,feed roller assembly,9544
Fdom01ActVal/OA_Fera2Spd,FDM01,fiber draw-off machine ## actual value feed roller assembly 2 speed,300.0,2000.0,m/min,feed roller assembly,9545
Fdom01ActVal/OA_Fera3Cur,FDM01,fiber draw-off machine ## actual value feed roller assembly 3 current,0.0,50.0,A,feed roller assembly,9546
Fdom01ActVal/OA_Fera3Load,FDM01,fiber draw-off machine ## actual value feed roller assembly 3 load,0.0,100.0,%,feed roller assembly,9547
Fdom01ActVal/OA_Fera3Spd,FDM01,fiber draw-off machine ## actual value feed roller assembly 3 speed,300.0,2000.0,m/min,feed roller assembly,9548
Fdom01ActVal/OA_Fera4Cur,FDM01,fiber draw-off machine ## actual value feed roller assembly 4 current,0.0,50.0,A,feed roller assembly,9549
Fdom01ActVal/OA_Fera4Load,FDM01,fiber draw-off machine ## actual value feed roller assembly 4 load,0.0,100.0,%,feed roller assembly,9550
Fdom01ActVal/OA_Fera4Spd,FDM01,fiber draw-off machine ## actual value feed roller assembly 4 speed,300.0,2000.0,m/min,feed roller assembly,9551
Fdom01ActVal/OA_Fera5Cur,FDM01,fiber draw-off machine ## actual value feed roller assembly 5 current,0.0,50.0,A,feed roller assembly,9552
Fdom01ActVal/OA_Fera5Load,FDM01,fiber draw-off machine ## actual value feed roller assembly 5 load,0.0,100.0,%,feed roller assembly,9553
Fdom01ActVal/OA_Fera5Spd,FDM01,fiber draw-off machine ## actual value feed roller assembly 5 speed,300.0,2000.0,m/min,feed roller assembly,9554
Fdom01ActVal/OA_Fera6Cur,FDM01,fiber draw-off machine ## actual value feed roller assembly 6 current,0.0,20.0,A,feed roller assembly,9555
Fdom01ActVal/OA_Fera6Load,FDM01,fiber draw-off machine ## actual value feed roller assembly 6 load,0.0,100.0,%,feed roller assembly,9556
Fdom01ActVal/OA_Fera6Spd,FDM01,fiber draw-off machine ## actual value feed roller assembly 6 speed,300.0,2000.0,m/min,feed roller assembly,9557
Fdom01ActVal/OA_LethCntr,FDM01,fiber draw-off machine ## actual value length counter,0.0,300000.0,m,can traversing unit,9558
Fdom01ActVal/OA_Ltrv1Cur,FDM01,fiber draw-off machine ## actual value longitudinal traversing 1 current,0.0,40.0,A,can traversing unit,9559
Fdom01ActVal/OA_Ltrv1Load,FDM01,fiber draw-off machine ## actual value longitudinal traversing 1 load,0.0,100.0,%,can traversing unit,9560
Fdom01ActVal/OA_Ltrv1Pos,FDM01,fiber draw-off machine ## actual value longitudinal traversing 1 position,-5000.0,5000.0,mm,can traversing unit,9561
Fdom01ActVal/OA_Ltrv1Spd,FDM01,fiber draw-off machine ## actual value longitudinal traversing 1 speed,1.0,10.0,m/min,can traversing unit,9562
Fdom01ActVal/OA_Ltrv2Cur,FDM01,fiber draw-off machine ## actual value longitudinal traversing 2 current,0.0,40.0,A,can traversing unit,9563
Fdom01ActVal/OA_Ltrv2Load,FDM01,fiber draw-off machine ## actual value longitudinal traversing 2 load,0.0,100.0,%,can traversing unit,9564
Fdom01ActVal/OA_SfwrAdju,FDM01,fiber draw-off machine ## actual value sunflower wheel adjustment,0.0,25.5, ,fiber draw off machine,9571
Fdom01ActVal/OA_SfwrCur,FDM01,fiber draw-off machine ## actual value sunflower wheel current,0.0,50.0,A,fiber draw off machine,9572
Fdom01ActVal/OA_SfwrFeraRat,FDM01,fiber draw-off machine ## actual value sunflower wheel feed roller assembly ratio,0.0,1.0,%,feed roller assembly,9573
Fdom01ActVal/OA_SfwrLoad,FDM01,fiber draw-off machine ## actual value sunflower wheel load,0.0,100.0,%,fiber draw off machine,9574
Fdom01ActVal/OA_SfwrSpd,FDM01,fiber draw-off machine ## actual value sunflower wheel speed,300.0,2500.0,m/min,fiber draw off machine,9575
Fdom01ActVal/OA_SpfiPump1Cur,FDM01,fiber draw-off machine ## actual value spin finish pump 1 current,0.0,15.0,A,fiber draw off machine,9576
Fdom01ActVal/OA_SpfiPump1Load,FDM01,fiber draw-off machine ## actual value spin finish pump 1 load,0.0,100.0,%,fiber draw off machine,9577
Fdom01ActVal/OA_SpfiPump1Volm,FDM01,fiber draw-off machine ## actual value spin finish pump 1 volume,48.0,480.0,cm³/min,fiber draw off machine,9578
Fdom01ActVal/OA_SpfiPump2Cur,FDM01,fiber draw-off machine ## actual value spin finish pump 2 current,0.0,15.0,A,fiber draw off machine,9579
Fdom01ActVal/OA_SpfiPump2Load,FDM01,fiber draw-off machine ## actual value spin finish pump 2 load,0.0,100.0,%,fiber draw off machine,9580
Fdom01ActVal/OA_SpfiPump2Volm,FDM01,fiber draw-off machine ## actual value spin finish pump 2 volume,48.0,480.0,cm³/min,fiber draw off machine,9581
Fdom01ActVal/OA_SunfFeroCur,FDM01,fiber draw-off machine ## actual value sunflower feed roll current,0.0,50.0,A,fiber draw off machine,9582
Fdom01ActVal/OA_SunfFeroLoad,FDM01,fiber draw-off machine ## actual value sunflower feed roll load,0.0,100.0,%,fiber draw off machine,9583
Fdom01ActVal/OA_SunfFeroSpd,FDM01,fiber draw-off machine ## actual value sunflower feed roll speed,300.0,2500.0,m/min,fiber draw off machine,9584
Cdex01Gnrl/OA_QaduHdy,FSP01,customer data exchange ## actual value quench air duct humidity,0.0,100.0,%,customer data exchange,9620
Cdex01Gnrl/OA_QaduPrs,FSP01,customer data exchange ## actual value quench air duct pressure,0.0,10.0,mbar,customer data exchange,9621
Cdex01Gnrl/OA_QaduTmp,FSP01,customer data exchange ## actual value quench air duct temperature,0.0,50.0,°C,customer data exchange,9622
Cdex01Gnrl/OA_QaunHdy,FSP01,customer data exchange ## actual value quench air unit humidity,0.0,100.0,%,customer data exchange,9623
Cdex01Gnrl/OA_QaunPrs,FSP01,quench air unit ## actual value pressure_,0.0,10.0,mbar,customer data exchange,9624
Cdex01Gnrl/OA_QaunTmp,FSP01,quench air unit ## actual value temperature_,0.0,50.0,°C,customer data exchange,9625
Dows02Boil/OA_HtmcInleTmp,FSP01,dowtherm system ## actual value boiler HTM cycle inlet temperature,0.0,400.0,°C,dowtherm system,9626
Dows03Boil/OA_HtmcInleTmp,FSP01,dowtherm system ## actual value boiler HTM cycle inlet temperature,0.0,400.0,°C,dowtherm system,9627
Dows02Boil/OA_LiqdTmp,FSP01,dowtherm system ## actual value boiler liquid temperature,0.0,400.0,°C,dowtherm system,9628
Dows03Boil/OA_LiqdTmp,FSP01,dowtherm system ## actual value boiler liquid temperature,0.0,400.0,°C,dowtherm system,9629
Dows02BoilHtmc/OA_CipuPrsBhnd,FSP01,dowtherm system ## actual value boiler HTM cycle circulation pump pressure behind,0.0,10.0,bar,dowtherm system,9630
Dows03BoilHtmc/OA_CipuPrsBhnd,FSP01,dowtherm system ## actual value boiler HTM cycle circulation pump pressure behind,0.0,10.0,bar,dowtherm system,9631
Dows02BoilHtmc/OA_CipuPrsInfr,FSP01,dowtherm system ## actual value boiler HTM cycle circulation pump pressure in front of,0.0,10.0,bar,dowtherm system,9632
Dows03BoilHtmc/OA_CipuPrsInfr,FSP01,dowtherm system ## actual value boiler HTM cycle circulation pump pressure in front of,0.0,10.0,bar,dowtherm system,9633
Dows01BoilHtmc/OA_OutlTmp,FSP01,dowtherm system ## actual value boiler HTM cycle outlet temperature,0.0,400.0,°C,dowtherm system,9634
Dows02BoilHtmc/OA_OutlTmp,FSP01,dowtherm system ## actual value boiler HTM cycle outlet temperature,0.0,400.0,°C,dowtherm system,9635
Dows03BoilHtmc/OA_OutlTmp,FSP01,dowtherm system ## actual value boiler HTM cycle outlet temperature,0.0,400.0,°C,dowtherm system,9636
Dows01Cond/OA_Cond03TmpBttm,FSP01,dowtherm system ## actual value condenser 3 temperature bottom,0.0,400.0,°C,dowtherm system,9637
Dows01Cond/OA_Cond03TmpTop,FSP01,dowtherm system ## actual value condenser 3 temperature top,0.0,400.0,°C,dowtherm system,9638
Dows01Cond/OA_Cond04TmpBttm,FSP01,dowtherm system ## actual value condenser 4 temperature bottom,0.0,400.0,°C,dowtherm system,9639
Dows01Cond/OA_Cond04TmpTop,FSP01,dowtherm system ## actual value condenser 4 temperature top,0.0,400.0,°C,dowtherm system,9640
Dsfi01Gnrl/OA_SpfpPos01_24DrveCur,FSP01,spin finish system quench air duct ## actual value spin finish pump position 1-24 drive current,0.0,12.0,A,duct spin finish,9641
Dsfi01Gnrl/OA_SpfpPos01_24DrveLoad,FSP01,spin finish system quench air duct ## actual value spin finish pump position 1-24 drive load,0.0,12.0,%,duct spin finish,9642
Dsfi01Gnrl/OA_SpfpPos01_24Flow,FSP01,spin finish system quench air duct ## actual value spin finish pump position 1-24 flow,0.0,1300.0,cm³/min,duct spin finish,9643
Dsfi01Gnrl/OA_SpfpPos25_48DrveCur,FSP01,spin finish system quench air duct ## actual value spin finish pump position 25-48 drive current,0.0,12.0,A,duct spin finish,9644
Dsfi01Gnrl/OA_SpfpPos25_48DrveLoad,FSP01,spin finish system quench air duct ## actual value spin finish pump position 25-48 drive load,0.0,12.0,%,duct spin finish,9645
Dsfi01Gnrl/OA_SpfpPos25_48Flow,FSP01,spin finish system quench air duct ## actual value spin finish pump position 25-48 flow,0.0,1300.0,cm³/min,duct spin finish,9646
Speq01Gnrl/OA_Spbe04Tmp,FSP01,spinning equipment ## actual value spinning beam 4 temperature,0.0,400.0,°C,spinning equipment,9647
Speq01Gnrl/OA_Spbe05Tmp01,FSP01,spinning equipment ## actual value spinning beam 5 temperature 1,0.0,400.0,°C,spinning equipment,9648
Speq01Gnrl/OA_Spbe06Tmp01,FSP01,spinning equipment ## actual value spinning beam 6 temperature 1,0.0,400.0,°C,spinning equipment,9649
Sppo21SppuComp01/OA_Cur,FSP01,spinning position ## actual value spinning pump component 1 current,0.0,25.0,A,spinning position,9650
Sppo22SppuComp01/OA_Cur,FSP01,spinning position ## actual value spinning pump component 1 current,0.0,25.0,A,spinning position,9651
Sppo23SppuComp01/OA_Cur,FSP01,spinning position ## actual value spinning pump component 1 current,0.0,25.0,A,spinning position,9652
Sppo24SppuComp01/OA_Cur,FSP01,spinning position ## actual value spinning pump component 1 current,0.0,25.0,A,spinning position,9653
Sppo25SppuComp01/OA_Cur,FSP01,spinning position ## actual value spinning pump component 1 current,0.0,25.0,A,spinning position,9654
Sppo26SppuComp01/OA_Cur,FSP01,spinning position ## actual value spinning pump component 1 current,0.0,25.0,A,spinning position,9655
Sppo27SppuComp01/OA_Cur,FSP01,spinning position ## actual value spinning pump component 1 current,0.0,25.0,A,spinning position,9656
Sppo28SppuComp01/OA_Cur,FSP01,spinning position ## actual value spinning pump component 1 current,0.0,25.0,A,spinning position,9657
Sppo29SppuComp01/OA_Cur,FSP01,spinning position ## actual value spinning pump component 1 current,0.0,25.0,A,spinning position,9658
Sppo30SppuComp01/OA_Cur,FSP01,spinning position ## actual value spinning pump component 1 current,0.0,25.0,A,spinning position,9659
Sppo31SppuComp01/OA_Cur,FSP01,spinning position ## actual value spinning pump component 1 current,0.0,25.0,A,spinning position,9660
Sppo32SppuComp01/OA_Cur,FSP01,spinning position ## actual value spinning pump component 1 current,0.0,25.0,A,spinning position,9661
Sppo33SppuComp01/OA_Cur,FSP01,spinning position ## actual value spinning pump component 1 current,0.0,25.0,A,spinning position,9662
Sppo34SppuComp01/OA_Cur,FSP01,spinning position ## actual value spinning pump component 1 current,0.0,25.0,A,spinning position,9663
Sppo35SppuComp01/OA_Cur,FSP01,spinning position ## actual value spinning pump component 1 current,0.0,25.0,A,spinning position,9664
Sppo36SppuComp01/OA_Cur,FSP01,spinning position ## actual value spinning pump component 1 current,0.0,25.0,A,spinning position,9665
Sppo37SppuComp01/OA_Cur,FSP01,spinning position ## actual value spinning pump component 1 current,0.0,25.0,A,spinning position,9666
Sppo38SppuComp01/OA_Cur,FSP01,spinning position ## actual value spinning pump component 1 current,0.0,25.0,A,spinning position,9667
Sppo39SppuComp01/OA_Cur,FSP01,spinning position ## actual value spinning pump component 1 current,0.0,25.0,A,spinning position,9668
Sppo40SppuComp01/OA_Cur,FSP01,spinning position ## actual value spinning pump component 1 current,0.0,25.0,A,spinning position,9669
Sppo41SppuComp01/OA_Cur,FSP01,spinning position ## actual value spinning pump component 1 current,0.0,25.0,A,spinning position,9670
Sppo42SppuComp01/OA_Cur,FSP01,spinning position ## actual value spinning pump component 1 current,0.0,25.0,A,spinning position,9671
Sppo43SppuComp01/OA_Cur,FSP01,spinning position ## actual value spinning pump component 1 current,0.0,25.0,A,spinning position,9672
Sppo44SppuComp01/OA_Cur,FSP01,spinning position ## actual value spinning pump component 1 current,0.0,25.0,A,spinning position,9673
Sppo45SppuComp01/OA_Cur,FSP01,spinning position ## actual value spinning pump component 1 current,0.0,25.0,A,spinning position,9674
Sppo46SppuComp01/OA_Cur,FSP01,spinning position ## actual value spinning pump component 1 current,0.0,25.0,A,spinning position,9675
Sppo47SppuComp01/OA_Cur,FSP01,spinning position ## actual value spinning pump component 1 current,0.0,25.0,A,spinning position,9676
Sppo48SppuComp01/OA_Cur,FSP01,spinning position ## actual value spinning pump component 1 current,0.0,25.0,A,spinning position,9677
Sppo21SppuComp01/OA_Load,FSP01,spinning position ## actual value spinning pump component 1 load,0.0,100.0,%,spinning position,9678
Sppo22SppuComp01/OA_Load,FSP01,spinning position ## actual value spinning pump component 1 load,0.0,100.0,%,spinning position,9679
Sppo23SppuComp01/OA_Load,FSP01,spinning position ## actual value spinning pump component 1 load,0.0,100.0,%,spinning position,9680
Sppo24SppuComp01/OA_Load,FSP01,spinning position ## actual value spinning pump component 1 load,0.0,100.0,%,spinning position,9681
Sppo25SppuComp01/OA_Load,FSP01,spinning position ## actual value spinning pump component 1 load,0.0,100.0,%,spinning position,9682
Sppo26SppuComp01/OA_Load,FSP01,spinning position ## actual value spinning pump component 1 load,0.0,100.0,%,spinning position,9683
Sppo27SppuComp01/OA_Load,FSP01,spinning position ## actual value spinning pump component 1 load,0.0,100.0,%,spinning position,9684
Sppo28SppuComp01/OA_Load,FSP01,spinning position ## actual value spinning pump component 1 load,0.0,100.0,%,spinning position,9685
Sppo29SppuComp01/OA_Load,FSP01,spinning position ## actual value spinning pump component 1 load,0.0,100.0,%,spinning position,9686
Sppo30SppuComp01/OA_Load,FSP01,spinning position ## actual value spinning pump component 1 load,0.0,100.0,%,spinning position,9687
Sppo31SppuComp01/OA_Load,FSP01,spinning position ## actual value spinning pump component 1 load,0.0,100.0,%,spinning position,9688
Sppo32SppuComp01/OA_Load,FSP01,spinning position ## actual value spinning pump component 1 load,0.0,100.0,%,spinning position,9689
Sppo33SppuComp01/OA_Load,FSP01,spinning position ## actual value spinning pump component 1 load,0.0,100.0,%,spinning position,9690
Sppo34SppuComp01/OA_Load,FSP01,spinning position ## actual value spinning pump component 1 load,0.0,100.0,%,spinning position,9691
Sppo35SppuComp01/OA_Load,FSP01,spinning position ## actual value spinning pump component 1 load,0.0,100.0,%,spinning position,9692
Sppo36SppuComp01/OA_Load,FSP01,spinning position ## actual value spinning pump component 1 load,0.0,100.0,%,spinning position,9693
Sppo37SppuComp01/OA_Load,FSP01,spinning position ## actual value spinning pump component 1 load,0.0,100.0,%,spinning position,9694
Sppo38SppuComp01/OA_Load,FSP01,spinning position ## actual value spinning pump component 1 load,0.0,100.0,%,spinning position,9695
Sppo39SppuComp01/OA_Load,FSP01,spinning position ## actual value spinning pump component 1 load,0.0,100.0,%,spinning position,9696
Sppo40SppuComp01/OA_Load,FSP01,spinning position ## actual value spinning pump component 1 load,0.0,100.0,%,spinning position,9697
Sppo41SppuComp01/OA_Load,FSP01,spinning position ## actual value spinning pump component 1 load,0.0,100.0,%,spinning position,9698
Sppo42SppuComp01/OA_Load,FSP01,spinning position ## actual value spinning pump component 1 load,0.0,100.0,%,spinning position,9699
Sppo43SppuComp01/OA_Load,FSP01,spinning position ## actual value spinning pump component 1 load,0.0,100.0,%,spinning position,9700
Sppo44SppuComp01/OA_Load,FSP01,spinning position ## actual value spinning pump component 1 load,0.0,100.0,%,spinning position,9701
Sppo45SppuComp01/OA_Load,FSP01,spinning position ## actual value spinning pump component 1 load,0.0,100.0,%,spinning position,9702
Sppo46SppuComp01/OA_Load,FSP01,spinning position ## actual value spinning pump component 1 load,0.0,100.0,%,spinning position,9703
Sppo47SppuComp01/OA_Load,FSP01,spinning position ## actual value spinning pump component 1 load,0.0,100.0,%,spinning position,9704
Sppo48SppuComp01/OA_Load,FSP01,spinning position ## actual value spinning pump component 1 load,0.0,100.0,%,spinning position,9705
Sppo27SppuComp01/OA_PrsBhnd01,FSP01,spinning position ## actual value spinning pump component 1 pressure behind 1,0.0,350.0,bar,spinning position,9712
Sppo30SppuComp01/OA_PrsBhnd01,FSP01,spinning position ## actual value spinning pump component 1 pressure behind 1,0.0,350.0,bar,spinning position,9715
Sppo35SppuComp01/OA_PrsBhnd01,FSP01,spinning position ## actual value spinning pump component 1 pressure behind 1,0.0,350.0,bar,spinning position,9720
Sppo43SppuComp01/OA_PrsBhnd01,FSP01,spinning position ## actual value spinning pump component 1 pressure behind 1,0.0,350.0,bar,spinning position,9728
Sppo22SppuComp01/OA_PrsInfr,FSP01,spinning position ## actual value spinning pump component 1 pressure in front of,0.0,350.0,bar,spinning position,9735
Sppo30SppuComp01/OA_PrsInfr,FSP01,spinning position ## actual value spinning pump component 1 pressure in front of,0.0,350.0,bar,spinning position,9743
Sppo38SppuComp01/OA_PrsInfr,FSP01,spinning position ## actual value spinning pump component 1 pressure in front of,0.0,350.0,bar,spinning position,9751
Sppo46SppuComp01/OA_PrsInfr,FSP01,spinning position ## actual value spinning pump component 1 pressure in front of,0.0,350.0,bar,spinning position,9759
Sppo21SppuComp01/OA_Spd,FSP01,spinning position ## actual value spinning pump component 1 speed,0.0,40.0,rpm,spinning position,9762
Sppo22SppuComp01/OA_Spd,FSP01,spinning position ## actual value spinning pump component 1 speed,0.0,40.0,rpm,spinning position,9763
Sppo23SppuComp01/OA_Spd,FSP01,spinning position ## actual value spinning pump component 1 speed,0.0,40.0,rpm,spinning position,9764
Sppo24SppuComp01/OA_Spd,FSP01,spinning position ## actual value spinning pump component 1 speed,0.0,40.0,rpm,spinning position,9765
Sppo25SppuComp01/OA_Spd,FSP01,spinning position ## actual value spinning pump component 1 speed,0.0,40.0,rpm,spinning position,9766
Sppo26SppuComp01/OA_Spd,FSP01,spinning position ## actual value spinning pump component 1 speed,0.0,40.0,rpm,spinning position,9767
Sppo27SppuComp01/OA_Spd,FSP01,spinning position ## actual value spinning pump component 1 speed,0.0,40.0,rpm,spinning position,9768
Sppo28SppuComp01/OA_Spd,FSP01,spinning position ## actual value spinning pump component 1 speed,0.0,40.0,rpm,spinning position,9769
Sppo29SppuComp01/OA_Spd,FSP01,spinning position ## actual value spinning pump component 1 speed,0.0,40.0,rpm,spinning position,9770
Sppo30SppuComp01/OA_Spd,FSP01,spinning position ## actual value spinning pump component 1 speed,0.0,40.0,rpm,spinning position,9771
Sppo31SppuComp01/OA_Spd,FSP01,spinning position ## actual value spinning pump component 1 speed,0.0,40.0,rpm,spinning position,9772
Sppo32SppuComp01/OA_Spd,FSP01,spinning position ## actual value spinning pump component 1 speed,0.0,40.0,rpm,spinning position,9773
Sppo33SppuComp01/OA_Spd,FSP01,spinning position ## actual value spinning pump component 1 speed,0.0,40.0,rpm,spinning position,9774
Sppo34SppuComp01/OA_Spd,FSP01,spinning position ## actual value spinning pump component 1 speed,0.0,40.0,rpm,spinning position,9775
Sppo35SppuComp01/OA_Spd,FSP01,spinning position ## actual value spinning pump component 1 speed,0.0,40.0,rpm,spinning position,9776
Sppo36SppuComp01/OA_Spd,FSP01,spinning position ## actual value spinning pump component 1 speed,0.0,40.0,rpm,spinning position,9777
Sppo37SppuComp01/OA_Spd,FSP01,spinning position ## actual value spinning pump component 1 speed,0.0,40.0,rpm,spinning position,9778
Sppo38SppuComp01/OA_Spd,FSP01,spinning position ## actual value spinning pump component 1 speed,0.0,40.0,rpm,spinning position,9779
Sppo39SppuComp01/OA_Spd,FSP01,spinning position ## actual value spinning pump component 1 speed,0.0,40.0,rpm,spinning position,9780
Sppo40SppuComp01/OA_Spd,FSP01,spinning position ## actual value spinning pump component 1 speed,0.0,40.0,rpm,spinning position,9781
Sppo41SppuComp01/OA_Spd,FSP01,spinning position ## actual value spinning pump component 1 speed,0.0,40.0,rpm,spinning position,9782
Sppo42SppuComp01/OA_Spd,FSP01,spinning position ## actual value spinning pump component 1 speed,0.0,40.0,rpm,spinning position,9783
Sppo43SppuComp01/OA_Spd,FSP01,spinning position ## actual value spinning pump component 1 speed,0.0,40.0,rpm,spinning position,9784
Sppo44SppuComp01/OA_Spd,FSP01,spinning position ## actual value spinning pump component 1 speed,0.0,40.0,rpm,spinning position,9785
Sppo45SppuComp01/OA_Spd,FSP01,spinning position ## actual value spinning pump component 1 speed,0.0,40.0,rpm,spinning position,9786
Sppo46SppuComp01/OA_Spd,FSP01,spinning position ## actual value spinning pump component 1 speed,0.0,40.0,rpm,spinning position,9787
Sppo47SppuComp01/OA_Spd,FSP01,spinning position ## actual value spinning pump component 1 speed,0.0,40.0,rpm,spinning position,9788
Sppo48SppuComp01/OA_Spd,FSP01,spinning position ## actual value spinning pump component 1 speed,0.0,40.0,rpm,spinning position,9789
Sppo22SppuComp01/OA_TmpMeltBhnd01,FSP01,spinning position ## actual value spinning pump component 1 temperature melt behind 1,0.0,400.0,°C,spinning position,9791
Sppo30SppuComp01/OA_TmpMeltBhnd01,FSP01,spinning position ## actual value spinning pump component 1 temperature melt behind 1,0.0,400.0,°C,spinning position,9799
Sppo38SppuComp01/OA_TmpMeltBhnd01,FSP01,spinning position ## actual value spinning pump component 1 temperature melt behind 1,0.0,400.0,°C,spinning position,9807
Sppo46SppuComp01/OA_TmpMeltBhnd01,FSP01,spinning position ## actual value spinning pump component 1 temperature melt behind 1,0.0,400.0,°C,spinning position,9815
Sppo22SppuComp01/OA_TmpMeltInfr,FSP01,spinning position ## actual value spinning pump component 1 temperature melt in front of,0.0,400.0,°C,spinning position,9819
Sppo30SppuComp01/OA_TmpMeltInfr,FSP01,spinning position ## actual value spinning pump component 1 temperature melt in front of,0.0,400.0,°C,spinning position,9827
Sppo38SppuComp01/OA_TmpMeltInfr,FSP01,spinning position ## actual value spinning pump component 1 temperature melt in front of,0.0,400.0,°C,spinning position,9835
Sppo46SppuComp01/OA_TmpMeltInfr,FSP01,spinning position ## actual value spinning pump component 1 temperature melt in front of,0.0,400.0,°C,spinning position,9843
Dows02HtmcTmp/OA_Mava,FSP01,dowtherm system ## actual value HTM cycle temperature manipulated value,0.0,100.0,%,dowtherm system,10105
Dows03HtmcTmp/OA_Mava,FSP01,dowtherm system ## actual value HTM cycle temperature manipulated value,0.0,100.0,%,dowtherm system,10106
Dows02HtmcTmp/OA_Pvar,FSP01,dowtherm system ## actual value HTM cycle temperature process variable,0.0,320.0,°C,dowtherm system,10111
Dows03HtmcTmp/OA_Pvar,FSP01,dowtherm system ## actual value HTM cycle temperature process variable,0.0,320.0,°C,dowtherm system,10112
Afcl01ActVal/OA_Aidu01AirFlow,ACL01,air flow control ## actual value air ducts spinning system 1 air flow,0.0,2000.0,m³/h,air flow control,10113
Afcl01ActVal/OA_Aidu02AirFlow,ACL01,air flow control ## actual value air ducts spinning system 2 air flow,0.0,2500.0,m³/h,air flow control,10114
Afcl01ActVal/OA_Aidu03AirFlow,ACL01,air flow control ## actual value air ducts spinning system 3 air flow,0.0,2500.0,m³/h,air flow control,10115
Afcl01ActVal/OA_Aidu04AirFlow,ACL01,air flow control ## actual value air ducts spinning system 4 air flow,0.0,2500.0,m³/h,air flow control,10116
Afcl01ActVal/OA_Aidu05AirFlow,ACL01,air flow control ## actual value air ducts spinning system 5 air flow,0.0,2500.0,m³/h,air flow control,10117
Afcl01ActVal/OA_Aidu06AirFlow,ACL01,air flow control ## actual value air ducts spinning system 6 air flow,0.0,2500.0,m³/h,air flow control,10118
Afcl01ActVal/OA_Aidu07AirFlow,ACL01,air flow control ## actual value air ducts spinning system 7 air flow,0.0,2500.0,m³/h,air flow control,10119
Afcl01ActVal/OA_Aidu08AirFlow,ACL01,air flow control ## actual value air ducts spinning system 8 air flow,0.0,2500.0,m³/h,air flow control,10120
Afcl01ActVal/OA_Aidu09AirFlow,ACL01,air flow control ## actual value air ducts spinning system 9 air flow,0.0,2500.0,m³/h,air flow control,10121
Afcl01ActVal/OA_Aidu10AirFlow,ACL01,air flow control ## actual value air ducts spinning system 10 air flow,0.0,2500.0,m³/h,air flow control,10122
Afcl01ActVal/OA_Aidu11AirFlow,ACL01,air flow control ## actual value air ducts spinning system 11 air flow,0.0,2500.0,m³/h,air flow control,10123
Afcl01ActVal/OA_Aidu12AirFlow,ACL01,air flow control ## actual value air ducts spinning system 12 air flow,0.0,2500.0,m³/h,air flow control,10124
Afcl01ActVal/OA_Aidu13AirFlow,ACL01,air flow control ## actual value air ducts spinning system 13 air flow,0.0,2500.0,m³/h,air flow control,10125
Afcl01ActVal/OA_Aidu14AirFlow,ACL01,air flow control ## actual value air ducts spinning system 14 air flow,0.0,2500.0,m³/h,air flow control,10126
Afcl01ActVal/OA_Aidu15AirFlow,ACL01,air flow control ## actual value air ducts spinning system 15 air flow,0.0,2500.0,m³/h,air flow control,10127
Afcl01ActVal/OA_Aidu16AirFlow,ACL01,air flow control ## actual value air ducts spinning system 16 air flow,0.0,2500.0,m³/h,air flow control,10128
Afcl01ActVal/OA_Aidu17AirFlow,ACL01,air flow control ## actual value air ducts spinning system 17 air flow,0.0,2500.0,m³/h,air flow control,10129
Afcl01ActVal/OA_Aidu18AirFlow,ACL01,air flow control ## actual value air ducts spinning system 18 air flow,0.0,2500.0,m³/h,air flow control,10130
Afcl01ActVal/OA_Aidu19AirFlow,ACL01,air flow control ## actual value air ducts spinning system 19 air flow,0.0,2500.0,m³/h,air flow control,10131
Afcl01ActVal/OA_Aidu20AirFlow,ACL01,air flow control ## actual value air ducts spinning system 20 air flow,0.0,2500.0,m³/h,air flow control,10132
Afcl01ActVal/OA_Aidu21AirFlow,ACL01,air flow control ## actual value air ducts spinning system 21 air flow,0.0,2500.0,m³/h,air flow control,10133
Afcl01ActVal/OA_Aidu22AirFlow,ACL01,air flow control ## actual value air ducts spinning system 22 air flow,0.0,2500.0,m³/h,air flow control,10134
Afcl01ActVal/OA_Aidu23AirFlow,ACL01,air flow control ## actual value air ducts spinning system 23 air flow,0.0,2500.0,m³/h,air flow control,10135
Afcl01ActVal/OA_Aidu24AirFlow,ACL01,air flow control ## actual value air ducts spinning system 24 air flow,0.0,2500.0,m³/h,air flow control,10136
Afcl01ActVal/OA_Aidu25AirFlow,ACL01,air flow control ## actual value air ducts spinning system 25 air flow,0.0,2500.0,m³/h,air flow control,10137
Afcl01ActVal/OA_Aidu26AirFlow,ACL01,air flow control ## actual value air ducts spinning system 26 air flow,0.0,2500.0,m³/h,air flow control,10138
Afcl01ActVal/OA_Aidu27AirFlow,ACL01,air flow control ## actual value air ducts spinning system 27 air flow,0.0,2500.0,m³/h,air flow control,10139
Afcl01ActVal/OA_Aidu28AirFlow,ACL01,air flow control ## actual value air ducts spinning system 28 air flow,0.0,2500.0,m³/h,air flow control,10140
Afcl01ActVal/OA_Aidu29AirFlow,ACL01,air flow control ## actual value air ducts spinning system 29 air flow,0.0,2500.0,m³/h,air flow control,10141
Afcl01ActVal/OA_Aidu30AirFlow,ACL01,air flow control ## actual value air ducts spinning system 30 air flow,0.0,2500.0,m³/h,air flow control,10142
Afcl01ActVal/OA_Aidu31AirFlow,ACL01,air flow control ## actual value air ducts spinning system 31 air flow,0.0,2500.0,m³/h,air flow control,10143
Afcl01ActVal/OA_Aidu32AirFlow,ACL01,air flow control ## actual value air ducts spinning system 32 air flow,0.0,2500.0,m³/h,air flow control,10144
Afcl01ActVal/OA_Aidu33AirFlow,ACL01,air flow control ## actual value air ducts spinning system 33 air flow,0.0,2500.0,m³/h,air flow control,10145
Afcl01ActVal/OA_Aidu34AirFlow,ACL01,air flow control ## actual value air ducts spinning system 34 air flow,0.0,2500.0,m³/h,air flow control,10146
Afcl01ActVal/OA_Aidu35AirFlow,ACL01,air flow control ## actual value air ducts spinning system 35 air flow,0.0,2500.0,m³/h,air flow control,10147
Afcl01ActVal/OA_Aidu36AirFlow,ACL01,air flow control ## actual value air ducts spinning system 36 air flow,0.0,2500.0,m³/h,air flow control,10148
Afcl01ActVal/OA_Aidu37AirFlow,ACL01,air flow control ## actual value air ducts spinning system 37 air flow,0.0,2500.0,m³/h,air flow control,10149
Afcl01ActVal/OA_Aidu38AirFlow,ACL01,air flow control ## actual value air ducts spinning system 38 air flow,0.0,2500.0,m³/h,air flow control,10150
Afcl01ActVal/OA_Aidu39AirFlow,ACL01,air flow control ## actual value air ducts spinning system 39 air flow,0.0,2500.0,m³/h,air flow control,10151
Afcl01ActVal/OA_Aidu40AirFlow,ACL01,air flow control ## actual value air ducts spinning system 40 air flow,0.0,2500.0,m³/h,air flow control,10152
Afcl01ActVal/OA_Aidu41AirFlow,ACL01,air flow control ## actual value air ducts spinning system 41 air flow,0.0,2500.0,m³/h,air flow control,10153
Afcl01ActVal/OA_Aidu42AirFlow,ACL01,air flow control ## actual value air ducts spinning system 42 air flow,0.0,2500.0,m³/h,air flow control,10154
Afcl01ActVal/OA_Aidu43AirFlow,ACL01,air flow control ## actual value air ducts spinning system 43 air flow,0.0,2500.0,m³/h,air flow control,10155
Afcl01ActVal/OA_Aidu44AirFlow,ACL01,air flow control ## actual value air ducts spinning system 44 air flow,0.0,2500.0,m³/h,air flow control,10156
Afcl01ActVal/OA_Aidu45AirFlow,ACL01,air flow control ## actual value air ducts spinning system 45 air flow,0.0,2500.0,m³/h,air flow control,10157
Afcl01ActVal/OA_Aidu46AirFlow,ACL01,air flow control ## actual value air ducts spinning system 46 air flow,0.0,2500.0,m³/h,air flow control,10158
Afcl01ActVal/OA_Aidu47AirFlow,ACL01,air flow control ## actual value air ducts spinning system 47 air flow,0.0,2500.0,m³/h,air flow control,10159
Afcl01ActVal/OA_Aidu48AirFlow,ACL01,air flow control ## actual value air ducts spinning system 48 air flow,0.0,2500.0,m³/h,air flow control,10160
Imba01Tmp/OA_Pvar,FBL01,immersion bath ## actual value temperature process variable,0.0,45.0,°C,immersion bath,10161
Imba01Tmp/OA_Mava,FBL01,immersion bath ## actual value temperature manipulated value,0.0,100.0,%,immersion bath,10162
Cadr01Sect01Prs/OA_Mava,FBL01,calender drier ## actual value section 1 pressure manipulated value,0.0,100.0,%,calender drier,10169
Cadr01Sect01Prs/OA_Pvar,FBL01,calender drier ## actual value section 1 pressure process variable,0.0,25.0,bar,calender drier,10172
Cadr01Sect02Prs/OA_Mava,FBL01,calender drier ## actual value section 2 pressure manipulated value,0.0,100.0,%,calender drier,10178
Cadr01Sect02Prs/OA_Pvar,FBL01,calender drier ## actual value section 2 pressure process variable,0.0,25.0,bar,calender drier,10181
Cadr01Sect03Prs/OA_Mava,FBL01,calender drier ## actual value section 3 pressure manipulated value,0.0,100.0,%,calender drier,10187
Cadr01Sect03Prs/OA_Pvar,FBL01,calender drier ## actual value section 3 pressure process variable,0.0,25.0,bar,calender drier,10190
Cadr01/OA_DrveCur,FBL01,calender drier ## actual value drive current,0.0,600.0,A,calender drier,10191
Cadr01/OA_DrveSpd,FBL01,calender drier ## actual value drive speed,0.0,300.0,m/min,calender drier,10195
Cadr01/OA_DrveTmp,FBL01,calender drier ## actual value drive temperature,0.0,200.0,°C,calender drier,10197
Cadr02/OA_DrveCur,FBL01,calender drier ## actual value drive current,0.0,600.0,A,calender drier,10209
Cadr03/OA_DrveCur,FBL01,calender drier ## actual value drive current,0.0,600.0,A,calender drier,10210
Cadr02/OA_DrveSpd,FBL01,calender drier ## actual value drive speed,0.0,300.0,m/min,calender drier,10217
Cadr03/OA_DrveSpd,FBL01,calender drier ## actual value drive speed,0.0,300.0,m/min,calender drier,10218
Cadr02/OA_DrveTmp,FBL01,calender drier ## actual value drive temperature,0.0,200.0,°C,calender drier,10221
Cadr03/OA_DrveTmp,FBL01,calender drier ## actual value drive temperature,0.0,200.0,°C,calender drier,10222
DrawStad01/OA_DrveCur,FBL01,roller draw stand 1 actual value drive current,0.0,200.0,A,roller draw stand 1,10245
DrawStad02/OA_DrveCur,FBL01,roller draw stand 2 actual value drive current,0.0,200.0,A,roller draw stand 2,10246
DrawStad03/OA_DrveCur,FBL01,roller draw stand 3 actual value drive current,0.0,200.0,A,roller draw stand 3,10247
DrawStad01/OA_DrveSpd,FBL01,roller draw stand 1 actual value drive speed,0.0,0.0,m/min,roller draw stand 1,10257
DrawStad02/OA_DrveSpd,FBL01,roller draw stand 2 actual value drive speed,0.0,0.0,m/min,roller draw stand 2,10258
DrawStad03/OA_DrveSpd,FBL01,roller draw stand 3 actual value drive speed,0.0,0.0,m/min,roller draw stand 3,10259
DrawStad01/OA_DrveTmp,FBL01,roller draw stand 1 actual value drive temperature,0.0,200.0,°C,roller draw stand 1,10263
DrawStad02/OA_DrveTmp,FBL01,roller draw stand 2 actual value drive temperature,0.0,200.0,°C,roller draw stand 2,10264
DrawStad03/OA_DrveTmp,FBL01,roller draw stand 3 actual value drive temperature,0.0,200.0,°C,roller draw stand 3,10265
Tost01/OA_DrveCur,FBL01,tow stacker ## actual value drive current,0.0,50.0,A,tow stacker,10269
Tost01/OA_DrveSpd,FBL01,tow stacker ## actual value drive speed,0.0,350.0,m/min,tow stacker,10273
Tost01/OA_DrveTmp,FBL01,tow stacker ## actual value drive temperature,0.0,200.0,°C,tow stacker,10275
Pbdr01TmpHzne04/OA_Mava,FBL01,plate belt drier ## actual value temperature heating zone 4 manipulated value,0.0,100.0,%,plate belt drier,10286
Pbdr01TmpHzne04/OA_Pvar,FBL01,plate belt drier ## actual value temperature heating zone 4 process variable,0.0,150.0,°C,plate belt drier,10289
Pbdr01TmpHzne01/OA_Mava,FBL01,plate belt drier ## actual value temperature heating zone 1 manipulated value,0.0,100.0,%,plate belt drier,10295
Pbdr01TmpHzne01/OA_Pvar,FBL01,plate belt drier ## actual value temperature heating zone 1 process variable,0.0,400.0,°C,plate belt drier,10298
Pbdr01TmpHzne02/OA_Mava,FBL01,plate belt drier ## actual value temperature heating zone 2 manipulated value,0.0,100.0,%,plate belt drier,10304
Pbdr01TmpHzne02/OA_Pvar,FBL01,plate belt drier ## actual value temperature heating zone 2 process variable,0.0,400.0,°C,plate belt drier,10307
Pbdr01TmpHzne03/OA_Mava,FBL01,plate belt drier ## actual value temperature heating zone 3 manipulated value,0.0,100.0,%,plate belt drier,10313
Pbdr01TmpHzne03/OA_Pvar,FBL01,plate belt drier ## actual value temperature heating zone 3 process variable,0.0,400.0,°C,plate belt drier,10316
Ttsd01Fmro/OA_Tens,FBL01,tension stand ## actual value force measuring roll tension_,0.0,5000.0,N,tow tension stand,10319
Pbdr01/OA_Spd,FBL01,plate belt drier ## actual value speed,0.0,10.0,m/min,plate belt drier,10322
Ttsd01/OA_DrveSpd,FBL01,tension stand ## actual value drive speed,0.0,0.0,m/min,tow tension stand,10339
Ttsd01/OA_DrveTmp,FBL01,tension stand ## actual value drive temperature,0.0,200.0,°C,tow tension stand,10341
Cutt01/OA_DrveSpd,FBL01,cutting machine ## actual value drive speed,0.0,350.0,m/min,cutting machine,10349
Cutt01/OA_DrveTmp,FBL01,cutting machine ## actual value drive temperature,0.0,200.0,°C,cutting machine,10350
CuttGrup01FeedUnit/OA_FeedUnitVlt,FBL01,cutting machine group ## actual value feeding unit voltage,0.0,1000.0,V,cutting machine,10357
Crim01/OA_DrveSpd,FBL01,crimper ## actual value drive speed,0.0,350.0,m/min,crimper,10369
Crim01/OA_DrveTmp,FBL01,crimper ## actual value drive temperature,0.0,200.0,°C,crimper,10371
Crim01/OA_OisyOilTmp,FBL01,crimper ## actual value oiling system oil temperature,-50.0,200.0,°C,crimper,10374
Crim01Tmp/OA_Mava,FBL01,crimper ## actual value temperature manipulated value,0.0,100.0,%,crimper,10383
Crim01Tmp/OA_Pvar,FBL01,crimper ## actual value temperature process variable,0.0,95.0,°C,crimper,10386
Fedb01/OA_DrveSpd,FBL01,feeding device ## actual value conveyor belt drive speed,0.0,350.0,m/min,feeding device belt,10392
Fedt01/OA_DrveSpd,FBL01,feeding device ## actual value traversing drive speed,0.0,100.0,m/min,feeding device traversing,10400
Fedt01/OA_DrveTmp,FBL01,feeding device ## actual value traversing drive temperature,0.0,200.0,°C,feeding device traversing,10402
Fibl01LethCntr/OA_Leth,FBL01,fiber band line ## actual value length counter length,0.0,250000.0,m,fiber band line,10412
Hyun01Opeh/OA_Opeh,FBL01,hydraulic unit ## actual value operating hours,0.0,10000.0,h,Crimper,10413
SpryDevc01/OA_CovrPos,FBL01,spraying device 1 actual value cover position,0.0,100.0,% ,spraying device,10414
Tgst01/OA_DrveCur,FBL01,tow guide stand ## actual value drive current,0.0,100.0,A,tow guide stand,10417
Tgst01/OA_DrveLoad,FBL01,tow guide stand ## actual value drive load,-50.0,50.0,kW,tow guide stand,10419
Tgst01/OA_DrveSpd,FBL01,tow guide stand ## actual value drive speed,0.0,350.0,m/min,tow guide stand,10421
Tgst01/OA_DrveTmp,FBL01,tow guide stand ## actual value drive temperature,0.0,200.0,°C,tow guide stand,10423
Tgst01/OA_DrveTorq,FBL01,tow guide stand ## actual value drive torque,0.0,250.0,Nm,tow guide stand,10424
DrawChst01Tmp/OA_Mava,FBL01,draw chest 1 actual value temperature manipulated value,0.0,100.0,%,draw chest,10425
DrawChst01Tmp/OA_Pvar,FBL01,draw chest 1 actual value temperature process variable,0.0,999.9000244140625,°C,draw chest,10428
Crhy01/OA_RollCotaPrs,FBL01,crimper hydraulics ## actual value roll contacting pressure,0.0,10.0,bar,crimper,10429
Crhy01/OA_StbxCotaPrs,FBL01,crimper hydraulics ## actual value stuffer box contacting pressure,0.0,10.0,bar,crimper,10430
Crhy01/OA_ThpaCotaPrsSetp,FBL01,crimper hydraulics ## actual value thrust pads contacting pressure setpoint,0.0,6.0,bar,crimper,10431
Pbdr01TmpHzne05/OA_Mava,FBL01,plate belt drier ## actual value temperature heating zone 5 manipulated value,0.0,100.0,%,plate belt drier,10531
Pbdr01TmpHzne05/OA_Pvar,FBL01,plate belt drier ## actual value temperature heating zone 5 process variable,0.0,150.0,°C,plate belt drier,10534
Crim01WcsyTmp/OA_Tmp,FBL01,crimper ## actual value water circulation system temperature,0.0,100.0,°C,crimper,10536
Rect+994E92/OA_FeedUnitVlt,FBL01,rectifier unit +994E92 actual value feeding unit voltage,0.0,1000.0,V,rectifier unit,10539
Bapr02Daex/OA_CuttLeth,FBL01,baling press ## actual value data exchange cutting machine length,0.0,9999.0,mm,baling press,10543
Bapr02Daex/OA_Titr,FBL01,baling press ## actual value data exchange titer,0.0,9999.0,detx,baling press,10547
FiblCustStemPrs/OA_Mava,FBL01,FBL ## fiber band line customer steam pressure actual value manipulated value,0.0,100.0,%,fiber band line,10557
FiblCustStemPrs/OA_Pvar,FBL01,FBL ## fiber band line customer steam pressure actual value process variable,0.0,15.0,bar,fiber band line,10560
FiblSwcaCotrRoomTmp/OA_Tmp,FBL01,FBL ## fiber band line switch cabinet room temperature actual value temperature,0.0,0.0,bar,fiber band line,10563
Bapr01Daex/OA_BaleWeigGros,FBL01,baling press ## data exchange actual value bale weight gross,0.0,9999.0,kg,baling press,10566
Bapr02Daex/OA_BaleWeigGros,FBL01,baling press ## data exchange actual value bale weight gross,0.0,9999.0,kg,baling press,10567
Bapr01Daex/OA_BaleWeigNett,FBL01,baling press ## data exchange actual value bale weight netto,0.0,9999.0,kg,baling press,10568
Bapr02Daex/OA_BaleWeigNett,FBL01,baling press ## data exchange actual value bale weight netto,0.0,9999.0,kg,baling press,10569
FiblCustStemPrsCadrInle/OA_Prs,FBL01,FBL ## fiber band line customer steam pressure calender drier inlet actual value pressure,0.0,0.0,bar,fiber band line,10571
DrawChst01TmpByps/OA_Tmp,FBL01,draw chest 1 actual value bypass temperature,0.0,199.89999389648438,°C,draw chest,10573
Rect+994E64/OA_FeedUnitVlt,FBL01,rectifier unit +## actual value +4E64 feeding unit voltage,0.0,1000.0,V,rectifier unit,10592
Rect+994E62/OA_FeedUnitVlt,FBL01,rectifier unit +## actual value +4E62 feeding unit voltage,0.0,1000.0,V,rectifier unit,10593
