,Timestamp,fault_name,timestamp_diff_wrt_previous
0,2019-06-08 12:19:55,FAULT 8,0 days 21:34:07.000000000
1,2019-05-29 19:27:11,FAULT 7,0 days 18:43:52.000000000
2,2019-06-06 21:03:34,FAULT 7,0 days 11:25:41.000000000
3,2019-05-31 09:22:21,FAULT 1,0 days 09:39:14.000000000
4,2019-06-05 23:10:11,FAULT 4,0 days 08:28:01.000000000
5,2019-06-05 13:11:27,FAULT 3,0 days 08:05:51.000000000
6,2019-06-07 05:17:16,FAULT 4,0 days 07:21:50.000000000
7,2019-06-10 05:27:23,FAULT 9,0 days 06:40:55.000000000
8,2019-06-09 16:09:52,FAULT 7,0 days 06:15:58.000000000
9,2019-05-27 09:55:41,FAULT 7,0 days 05:57:22.000000000
10,2019-05-28 00:41:46,FAULT 4,0 days 05:56:20.000000000
11,2019-05-29 00:43:19,FAULT 1,0 days 05:56:08.000000000
12,2019-06-09 03:02:03,FAULT 4,0 days 05:42:11.000000000
13,2019-06-06 04:37:39,FAULT 4,0 days 05:27:28.000000000
14,2019-06-05 03:28:19,FAULT 7,0 days 05:23:58.000000000
15,2019-05-28 11:18:28,FAULT 6,0 days 05:02:46.000000000
16,2019-06-04 22:04:07,FAULT 7,0 days 04:55:30.000000000
17,2019-06-10 10:16:24,FAULT 4,0 days 04:49:01.000000000
18,2019-05-27 18:13:11,FAULT 1,0 days 04:45:54.000000000
19,2019-06-04 12:14:58,FAULT 7,0 days 04:37:39.000000000
20,2019-05-31 20:03:06,FAULT 7,0 days 04:33:46.000000000
21,2019-05-30 23:21:54,FAULT 7,0 days 04:27:03.000000000
22,2019-06-11 12:52:39,FAULT 5,0 days 04:23:59.000000000
23,2019-06-04 07:37:15,FAULT 1,0 days 04:17:13.000000000
24,2019-06-08 20:28:10,FAULT 7,0 days 03:36:45.000000000
25,2019-05-30 18:53:58,FAULT 4,0 days 03:30:50.000000000
26,2019-06-07 14:30:52,FAULT 1,0 days 03:14:17.000000000
27,2019-06-10 17:10:08,FAULT 7,0 days 03:12:45.000000000
28,2019-06-11 03:47:46,FAULT 8,0 days 03:11:19.000000000
29,2019-06-09 06:10:03,FAULT 4,0 days 03:08:00.000000000
30,2019-05-31 23:28:55,FAULT 6,0 days 03:00:00.000000000
31,2019-06-10 21:10:46,FAULT 1,0 days 02:58:11.000000000
32,2019-05-31 13:11:36,FAULT 6,0 days 02:57:41.000000000
33,2019-06-04 00:56:24,FAULT 1,0 days 02:52:39.000000000
34,2019-06-01 05:16:16,FAULT 8,0 days 02:45:09.000000000
35,2019-06-04 14:59:07,FAULT 1,0 days 02:44:00.000000000
36,2019-06-01 13:44:38,FAULT 6,0 days 02:41:25.000000000
37,2019-05-28 14:33:08,FAULT 1,0 days 02:39:52.000000000
38,2019-06-02 02:17:07,FAULT 6,0 days 02:36:33.000000000
39,2019-06-09 08:45:50,FAULT 7,0 days 02:35:47.000000000
40,2019-06-01 20:05:51,FAULT 6,0 days 02:34:55.000000000
41,2019-06-02 06:17:35,FAULT 6,0 days 02:34:34.000000000
42,2019-05-30 08:32:56,FAULT 9,0 days 02:22:28.000000000
43,2019-06-09 18:37:32,FAULT 7,0 days 02:18:39.000000000
44,2019-06-10 13:56:45,FAULT 7,0 days 02:17:42.000000000
45,2019-06-03 05:53:32,FAULT 6,0 days 02:13:21.000000000
46,2019-06-01 23:26:10,FAULT 7,0 days 02:10:41.000000000
47,2019-05-30 00:29:36,FAULT 1,0 days 02:10:30.000000000
48,2019-06-04 17:08:28,FAULT 7,0 days 02:09:01.000000000
49,2019-06-03 22:01:59,FAULT 4,0 days 02:08:30.000000000
50,2019-06-02 14:42:16,FAULT 7,0 days 02:08:07.000000000
51,2019-06-03 18:47:37,FAULT 7,0 days 02:07:29.000000000
52,2019-06-03 02:11:51,FAULT 7,0 days 02:01:19.000000000
53,2019-06-01 08:30:16,FAULT 5,0 days 01:59:59.000000000
54,2019-06-02 09:59:41,FAULT 4,0 days 01:58:23.000000000
55,2019-06-01 15:56:00,FAULT 6,0 days 01:55:02.000000000
56,2019-05-30 10:24:31,FAULT 8,0 days 01:51:35.000000000
57,2019-06-07 09:27:43,FAULT 5,0 days 01:43:43.000000000
58,2019-06-07 06:58:59,FAULT 4,0 days 01:41:43.000000000
59,2019-05-31 15:29:20,FAULT 6,0 days 01:40:54.000000000
60,2019-06-02 11:35:20,FAULT 6,0 days 01:35:39.000000000
61,2019-06-01 02:31:07,FAULT 7,0 days 01:34:58.000000000
62,2019-05-29 21:39:14,FAULT 1,0 days 01:34:43.000000000
63,2019-06-10 23:51:51,FAULT 4,0 days 01:32:56.000000000
64,2019-06-03 16:39:48,FAULT 1,0 days 01:32:25.000000000
65,2019-06-02 17:59:17,FAULT 4,0 days 01:32:05.000000000
66,2019-05-28 04:31:44,FAULT 4,0 days 01:30:25.000000000
67,2019-06-04 03:20:02,FAULT 1,0 days 01:29:49.000000000
68,2019-05-28 17:12:25,FAULT 4,0 days 01:27:37.000000000
69,2019-06-03 14:40:25,FAULT 7,0 days 01:25:33.000000000
70,2019-06-02 22:06:36,FAULT 6,0 days 01:24:32.000000000
71,2019-06-11 08:28:12,FAULT 4,0 days 01:23:45.000000000
72,2019-06-06 09:37:53,FAULT 9,0 days 01:23:05.000000000
73,2019-06-10 11:39:03,FAULT 4,0 days 01:22:39.000000000
74,2019-06-11 05:47:31,FAULT 8,0 days 01:20:09.000000000
75,2019-06-02 16:01:42,FAULT 6,0 days 01:19:23.000000000
76,2019-06-02 07:36:05,FAULT 4,0 days 01:18:30.000000000
77,2019-05-30 06:10:21,FAULT 9,0 days 01:17:53.000000000
78,2019-06-11 07:04:27,FAULT 4,0 days 01:16:56.000000000
79,2019-06-02 19:14:02,FAULT 6,0 days 01:14:45.000000000
80,2019-05-28 05:46:23,FAULT 7,0 days 01:14:39.000000000
81,2019-06-08 14:22:25,FAULT 5,0 days 01:13:40.000000000
82,2019-05-27 11:08:21,FAULT 8,0 days 01:12:40.000000000
83,2019-06-09 22:39:52,FAULT 7,0 days 01:10:46.000000000
84,2019-06-03 12:53:32,FAULT 7,0 days 01:10:21.000000000
85,2019-06-09 21:17:29,FAULT 7,0 days 01:08:01.000000000
86,2019-06-08 15:31:29,FAULT 1,0 days 01:07:24.000000000
87,2019-06-09 09:53:54,FAULT 7,0 days 01:07:01.000000000
88,2019-05-30 13:42:52,FAULT 7,0 days 01:06:55.000000000
89,2019-06-05 14:42:10,FAULT 7,0 days 01:05:46.000000000
90,2019-06-03 00:09:56,FAULT 1,0 days 01:04:53.000000000
91,2019-05-30 04:52:28,FAULT 8,0 days 01:03:56.000000000
92,2019-06-01 00:31:58,FAULT 6,0 days 01:02:45.000000000
93,2019-06-10 18:12:35,FAULT 4,0 days 01:02:27.000000000
94,2019-06-06 08:10:38,FAULT 9,0 days 01:01:44.000000000
95,2019-05-28 02:55:31,FAULT 7,0 days 00:59:51.000000000
96,2019-06-01 09:29:55,FAULT 5,0 days 00:59:39.000000000
97,2019-06-03 19:53:29,FAULT 7,0 days 00:59:18.000000000
98,2019-06-02 20:41:27,FAULT 6,0 days 00:57:04.000000000
99,2019-05-30 15:20:31,FAULT 7,0 days 00:56:14.000000000
100,2019-06-08 16:51:15,FAULT 7,0 days 00:55:04.000000000
101,2019-05-27 13:26:50,FAULT 1,0 days 00:54:50.000000000
102,2019-06-03 07:46:54,FAULT 4,0 days 00:53:32.000000000
103,2019-06-01 17:30:46,FAULT 6,0 days 00:52:06.000000000
104,2019-06-08 21:19:21,FAULT 4,0 days 00:51:11.000000000
105,2019-06-03 03:02:48,FAULT 7,0 days 00:50:37.000000000
106,2019-06-01 11:03:08,FAULT 1,0 days 00:50:07.000000000
107,2019-05-30 03:26:45,FAULT 1,0 days 00:48:51.000000000
108,2019-06-02 03:42:45,FAULT 6,0 days 00:47:22.000000000
109,2019-06-01 06:30:17,FAULT 4,0 days 00:47:21.000000000
110,2019-05-30 02:07:03,FAULT 7,0 days 00:47:17.000000000
111,2019-06-02 12:20:46,FAULT 6,0 days 00:45:26.000000000
112,2019-06-01 16:38:23,FAULT 6,0 days 00:42:23.000000000
113,2019-06-07 11:16:35,FAULT 1,0 days 00:41:17.000000000
114,2019-05-30 11:31:59,FAULT 8,0 days 00:40:22.000000000
115,2019-06-03 06:33:50,FAULT 6,0 days 00:40:18.000000000
116,2019-05-28 01:51:04,FAULT 7,0 days 00:39:32.000000000
117,2019-05-28 18:20:06,FAULT 1,0 days 00:39:29.000000000
118,2019-05-30 01:19:07,FAULT 7,0 days 00:39:17.000000000
119,2019-05-30 12:35:57,FAULT 8,0 days 00:38:57.000000000
120,2019-05-30 14:24:13,FAULT 4,0 days 00:38:45.000000000
121,2019-05-31 10:13:55,FAULT 1,0 days 00:38:26.000000000
122,2019-06-02 02:55:23,FAULT 6,0 days 00:38:16.000000000
123,2019-06-02 22:44:26,FAULT 1,0 days 00:37:50.000000000
124,2019-06-03 03:40:08,FAULT 7,0 days 00:37:20.000000000
125,2019-05-29 20:04:24,FAULT 7,0 days 00:37:10.000000000
126,2019-05-31 13:48:26,FAULT 6,0 days 00:36:50.000000000
127,2019-05-28 15:17:39,FAULT 1,0 days 00:35:06.000000000
128,2019-06-09 19:12:39,FAULT 1,0 days 00:34:55.000000000
129,2019-06-03 09:02:20,FAULT 7,0 days 00:34:46.000000000
130,2019-06-03 10:13:24,FAULT 6,0 days 00:33:57.000000000
131,2019-06-08 12:53:34,FAULT 1,0 days 00:33:39.000000000
132,2019-05-27 12:32:00,FAULT 4,0 days 00:33:14.000000000
133,2019-05-28 11:50:58,FAULT 1,0 days 00:32:16.000000000
134,2019-06-03 11:14:37,FAULT 6,0 days 00:32:07.000000000
135,2019-05-27 18:45:26,FAULT 1,0 days 00:31:59.000000000
136,2019-06-11 13:30:35,FAULT 7,0 days 00:30:43.000000000
137,2019-06-02 19:44:23,FAULT 6,0 days 00:30:21.000000000
138,2019-05-28 01:11:27,FAULT 1,0 days 00:29:41.000000000
139,2019-06-06 06:43:44,FAULT 1,0 days 00:29:40.000000000
140,2019-05-28 06:15:42,FAULT 7,0 days 00:29:12.000000000
141,2019-06-03 08:27:34,FAULT 6,0 days 00:28:55.000000000
142,2019-06-03 11:43:11,FAULT 6,0 days 00:28:34.000000000
143,2019-05-28 17:40:37,FAULT 7,0 days 00:28:12.000000000
144,2019-06-01 10:12:14,FAULT 7,0 days 00:28:04.000000000
145,2019-06-03 10:42:30,FAULT 6,0 days 00:27:42.000000000
146,2019-06-06 21:55:26,FAULT 7,0 days 00:27:26.000000000
147,2019-05-29 22:19:04,FAULT 9,0 days 00:27:06.000000000
148,2019-05-28 15:44:43,FAULT 7,0 days 00:27:04.000000000
149,2019-06-01 20:32:32,FAULT 1,0 days 00:26:41.000000000
150,2019-06-01 05:42:56,FAULT 5,0 days 00:26:40.000000000
151,2019-05-28 18:46:30,FAULT 4,0 days 00:26:20.000000000
152,2019-06-07 07:25:15,FAULT 8,0 days 00:26:16.000000000
153,2019-06-09 19:55:24,FAULT 8,0 days 00:25:58.000000000
154,2019-06-10 22:18:55,FAULT 5,0 days 00:25:20.000000000
155,2019-06-02 08:01:06,FAULT 6,0 days 00:25:01.000000000
156,2019-05-27 11:56:09,FAULT 2,0 days 00:24:37.000000000
157,2019-06-06 21:28:00,FAULT 7,0 days 00:24:26.000000000
158,2019-06-11 00:36:23,FAULT 1,0 days 00:24:17.000000000
159,2019-06-01 00:56:06,FAULT 7,0 days 00:24:08.000000000
160,2019-05-31 20:27:14,FAULT 4,0 days 00:24:05.000000000
161,2019-06-03 15:07:10,FAULT 1,0 days 00:23:49.000000000
162,2019-06-10 21:34:34,FAULT 4,0 days 00:23:48.000000000
163,2019-06-07 09:49:24,FAULT 4,0 days 00:21:41.000000000
164,2019-06-06 05:48:41,FAULT 9,0 days 00:21:29.000000000
165,2019-05-30 23:43:07,FAULT 7,0 days 00:21:10.000000000
166,2019-06-11 04:27:22,FAULT 4,0 days 00:21:01.000000000
167,2019-06-06 05:08:24,FAULT 9,0 days 00:20:57.000000000
168,2019-06-05 04:07:52,FAULT 7,0 days 00:20:42.000000000
169,2019-06-01 21:15:29,FAULT 1,0 days 00:20:07.000000000
170,2019-06-03 13:14:34,FAULT 1,0 days 00:20:05.000000000
171,2019-06-04 01:16:33,FAULT 1,0 days 00:20:04.000000000
172,2019-06-01 20:52:26,FAULT 8,0 days 00:19:54.000000000
173,2019-06-03 06:53:22,FAULT 6,0 days 00:19:32.000000000
174,2019-05-30 11:57:00,FAULT 8,0 days 00:19:30.000000000
175,2019-05-30 10:51:37,FAULT 8,0 days 00:19:30.000000000
176,2019-06-05 05:04:25,FAULT 8,0 days 00:19:13.000000000
177,2019-06-04 01:35:41,FAULT 8,0 days 00:19:08.000000000
178,2019-06-03 09:39:27,FAULT 7,0 days 00:19:06.000000000
179,2019-06-10 21:53:35,FAULT 8,0 days 00:19:01.000000000
180,2019-05-30 02:37:42,FAULT 1,0 days 00:19:01.000000000
181,2019-06-07 07:44:00,FAULT 5,0 days 00:18:45.000000000
182,2019-06-11 04:06:21,FAULT 5,0 days 00:18:35.000000000
183,2019-06-05 13:34:17,FAULT 7,0 days 00:16:40.000000000
184,2019-06-01 14:00:58,FAULT 4,0 days 00:16:20.000000000
185,2019-06-06 07:08:54,FAULT 1,0 days 00:14:48.000000000
186,2019-06-05 04:25:12,FAULT 7,0 days 00:14:38.000000000
187,2019-06-07 10:23:24,FAULT 5,0 days 00:14:28.000000000
188,2019-06-01 09:44:10,FAULT 8,0 days 00:14:15.000000000
189,2019-06-01 23:40:34,FAULT 7,0 days 00:14:13.000000000
190,2019-06-09 19:27:48,FAULT 1,0 days 00:14:02.000000000
191,2019-06-08 15:44:59,FAULT 8,0 days 00:13:29.000000000
192,2019-05-31 09:35:29,FAULT 1,0 days 00:13:08.000000000
193,2019-06-08 13:08:45,FAULT 1,0 days 00:13:01.000000000
194,2019-05-30 03:48:30,FAULT 1,0 days 00:12:57.000000000
195,2019-05-29 21:51:58,FAULT 1,0 days 00:12:44.000000000
196,2019-06-02 12:33:28,FAULT 4,0 days 00:12:42.000000000
197,2019-06-07 14:45:48,FAULT 1,0 days 00:12:39.000000000
198,2019-06-07 10:35:18,FAULT 8,0 days 00:11:54.000000000
199,2019-06-03 07:58:39,FAULT 6,0 days 00:11:45.000000000
200,2019-06-04 01:47:13,FAULT 1,0 days 00:11:32.000000000
201,2019-05-30 02:18:33,FAULT 7,0 days 00:11:30.000000000
202,2019-06-07 10:00:26,FAULT 1,0 days 00:11:02.000000000
203,2019-06-11 00:12:06,FAULT 1,0 days 00:10:17.000000000
204,2019-06-02 23:05:03,FAULT 1,0 days 00:10:15.000000000
205,2019-05-30 00:39:50,FAULT 7,0 days 00:10:14.000000000
206,2019-06-11 13:43:26,FAULT 7,0 days 00:10:09.000000000
207,2019-06-05 03:47:10,FAULT 7,0 days 00:09:49.000000000
208,2019-06-06 06:53:57,FAULT 1,0 days 00:09:33.000000000
209,2019-06-05 04:39:24,FAULT 2,0 days 00:09:32.000000000
210,2019-05-28 14:42:33,FAULT 1,0 days 00:09:25.000000000
211,2019-06-03 09:20:21,FAULT 4,0 days 00:09:21.000000000
212,2019-06-07 10:08:56,FAULT 4,0 days 00:08:11.000000000
213,2019-06-06 05:27:12,FAULT 1,0 days 00:08:01.000000000
214,2019-06-10 23:59:40,FAULT 5,0 days 00:07:49.000000000
215,2019-06-06 04:45:24,FAULT 4,0 days 00:07:45.000000000
216,2019-05-30 10:32:07,FAULT 8,0 days 00:07:36.000000000
217,2019-06-05 03:37:21,FAULT 7,0 days 00:07:35.000000000
218,2019-06-06 05:15:59,FAULT 9,0 days 00:07:30.000000000
219,2019-05-27 11:31:32,FAULT 2,0 days 00:07:27.000000000
220,2019-06-11 12:59:52,FAULT 8,0 days 00:07:13.000000000
221,2019-06-09 21:24:39,FAULT 7,0 days 00:07:10.000000000
222,2019-06-09 16:18:53,FAULT 7,0 days 00:07:06.000000000
223,2019-06-06 06:05:16,FAULT 2,0 days 00:07:05.000000000
224,2019-06-09 22:46:26,FAULT 9,0 days 00:06:34.000000000
225,2019-06-03 18:54:11,FAULT 7,0 days 00:06:34.000000000
226,2019-06-02 22:54:48,FAULT 8,0 days 00:06:28.000000000
227,2019-05-27 11:22:51,FAULT 1,0 days 00:06:19.000000000
228,2019-06-02 16:22:31,FAULT 7,0 days 00:05:51.000000000
229,2019-05-27 11:14:02,FAULT 1,0 days 00:05:41.000000000
230,2019-05-28 03:01:16,FAULT 7,0 days 00:05:35.000000000
231,2019-05-30 03:35:33,FAULT 8,0 days 00:04:47.000000000
232,2019-05-30 11:36:56,FAULT 8,0 days 00:04:26.000000000
233,2019-06-06 06:13:15,FAULT 4,0 days 00:04:22.000000000
234,2019-06-05 13:17:37,FAULT 4,0 days 00:04:22.000000000
235,2019-06-05 04:29:31,FAULT 1,0 days 00:04:19.000000000
236,2019-05-30 03:30:46,FAULT 8,0 days 00:04:01.000000000
237,2019-06-02 22:48:20,FAULT 8,0 days 00:03:54.000000000
238,2019-05-28 01:55:38,FAULT 9,0 days 00:03:51.000000000
239,2019-06-09 19:59:07,FAULT 2,0 days 00:03:43.000000000
240,2019-06-06 05:54:48,FAULT 2,0 days 00:03:25.000000000
241,2019-06-06 08:14:48,FAULT 4,0 days 00:03:23.000000000
242,2019-06-02 16:14:08,FAULT 1,0 days 00:03:22.000000000
243,2019-06-02 16:10:46,FAULT 1,0 days 00:03:14.000000000
244,2019-06-06 05:19:11,FAULT 9,0 days 00:03:12.000000000
245,2019-06-08 15:48:10,FAULT 8,0 days 00:03:11.000000000
246,2019-06-03 09:07:14,FAULT 9,0 days 00:03:03.000000000
247,2019-06-04 01:50:13,FAULT 8,0 days 00:03:00.000000000
248,2019-06-03 14:43:21,FAULT 7,0 days 00:02:56.000000000
249,2019-06-05 04:42:57,FAULT 1,0 days 00:02:47.000000000
250,2019-06-11 13:33:17,FAULT 7,0 days 00:02:42.000000000
251,2019-06-05 04:10:34,FAULT 7,0 days 00:02:42.000000000
252,2019-06-02 16:04:39,FAULT 1,0 days 00:02:30.000000000
253,2019-06-02 16:24:59,FAULT 7,0 days 00:02:28.000000000
254,2019-06-02 16:16:40,FAULT 1,0 days 00:02:16.000000000
255,2019-06-02 16:27:12,FAULT 7,0 days 00:02:13.000000000
256,2019-05-28 11:53:16,FAULT 6,0 days 00:02:13.000000000
257,2019-06-08 12:55:44,FAULT 5,0 days 00:02:10.000000000
258,2019-06-07 14:33:05,FAULT 1,0 days 00:02:10.000000000
259,2019-06-11 00:01:49,FAULT 8,0 days 00:02:09.000000000
260,2019-05-30 15:22:38,FAULT 7,0 days 00:02:07.000000000
261,2019-06-05 13:36:24,FAULT 7,0 days 00:02:07.000000000
262,2019-06-09 21:27:44,FAULT 7,0 days 00:01:50.000000000
263,2019-06-05 04:45:12,FAULT 8,0 days 00:01:47.000000000
264,2019-06-08 15:53:33,FAULT 1,0 days 00:01:46.000000000
265,2019-06-03 22:03:45,FAULT 4,0 days 00:01:46.000000000
266,2019-06-08 15:55:17,FAULT 1,0 days 00:01:44.000000000
267,2019-06-03 09:04:11,FAULT 6,0 days 00:01:43.000000000
268,2019-06-08 14:24:05,FAULT 8,0 days 00:01:40.000000000
269,2019-06-06 04:47:02,FAULT 4,0 days 00:01:38.000000000
270,2019-06-03 09:11:00,FAULT 4,0 days 00:01:38.000000000
271,2019-06-06 05:57:40,FAULT 2,0 days 00:01:38.000000000
272,2019-06-08 15:51:00,FAULT 1,0 days 00:01:37.000000000
273,2019-06-06 05:50:39,FAULT 9,0 days 00:01:34.000000000
274,2019-06-09 20:01:19,FAULT 2,0 days 00:01:25.000000000
275,2019-06-03 10:14:48,FAULT 6,0 days 00:01:24.000000000
276,2019-06-09 19:29:16,FAULT 1,0 days 00:01:23.000000000
277,2019-06-09 21:29:06,FAULT 7,0 days 00:01:21.000000000
278,2019-05-27 11:15:22,FAULT 8,0 days 00:01:20.000000000
279,2019-06-03 09:08:43,FAULT 3,0 days 00:01:16.000000000
280,2019-06-02 16:05:55,FAULT 1,0 days 00:01:16.000000000
281,2019-06-09 21:25:54,FAULT 7,0 days 00:01:15.000000000
282,2019-06-01 20:55:22,FAULT 8,0 days 00:01:14.000000000
283,2019-06-08 15:49:23,FAULT 8,0 days 00:01:13.000000000
284,2019-06-09 16:11:47,FAULT 7,0 days 00:01:12.000000000
285,2019-05-27 11:16:32,FAULT 8,0 days 00:01:10.000000000
286,2019-06-06 05:55:59,FAULT 2,0 days 00:01:10.000000000
287,2019-06-09 19:13:46,FAULT 1,0 days 00:01:07.000000000
288,2019-06-06 06:07:30,FAULT 2,0 days 00:01:06.000000000
289,2019-06-02 16:07:30,FAULT 1,0 days 00:01:05.000000000
290,2019-06-09 08:46:53,FAULT 7,0 days 00:01:03.000000000
291,2019-06-09 20:03:56,FAULT 2,0 days 00:01:00.000000000
292,2019-05-31 20:28:55,FAULT 4,0 days 00:00:58.000000000
293,2019-06-03 12:54:29,FAULT 7,0 days 00:00:57.000000000
294,2019-06-09 20:02:50,FAULT 2,0 days 00:00:56.000000000
295,2019-06-05 03:29:43,FAULT 7,0 days 00:00:55.000000000
296,2019-05-30 13:44:34,FAULT 7,0 days 00:00:55.000000000
297,2019-05-27 11:24:05,FAULT 2,0 days 00:00:54.000000000
298,2019-06-05 13:13:15,FAULT 3,0 days 00:00:54.000000000
299,2019-06-05 13:12:21,FAULT 3,0 days 00:00:54.000000000
300,2019-06-08 15:56:10,FAULT 1,0 days 00:00:53.000000000
301,2019-05-30 18:54:51,FAULT 4,0 days 00:00:53.000000000
302,2019-06-01 20:53:14,FAULT 1,0 days 00:00:48.000000000
303,2019-05-27 11:58:46,FAULT 2,0 days 00:00:47.000000000
304,2019-06-06 08:11:25,FAULT 9,0 days 00:00:47.000000000
305,2019-06-08 15:51:47,FAULT 1,0 days 00:00:47.000000000
306,2019-06-01 20:54:08,FAULT 8,0 days 00:00:46.000000000
307,2019-06-06 05:51:23,FAULT 8,0 days 00:00:44.000000000
308,2019-05-31 20:27:57,FAULT 4,0 days 00:00:43.000000000
309,2019-05-28 01:51:47,FAULT 7,0 days 00:00:43.000000000
310,2019-06-09 20:05:29,FAULT 2,0 days 00:00:42.000000000
311,2019-06-02 12:34:09,FAULT 4,0 days 00:00:41.000000000
312,2019-06-05 05:05:36,FAULT 8,0 days 00:00:41.000000000
313,2019-05-28 18:47:11,FAULT 4,0 days 00:00:41.000000000
314,2019-06-06 06:08:18,FAULT 2,0 days 00:00:40.000000000
315,2019-06-06 06:44:24,FAULT 2,0 days 00:00:40.000000000
316,2019-06-09 20:04:40,FAULT 2,0 days 00:00:40.000000000
317,2019-05-27 11:57:08,FAULT 2,0 days 00:00:39.000000000
318,2019-05-30 01:19:46,FAULT 7,0 days 00:00:39.000000000
319,2019-06-03 09:09:22,FAULT 3,0 days 00:00:39.000000000
320,2019-05-30 13:43:31,FAULT 7,0 days 00:00:39.000000000
321,2019-05-30 13:45:13,FAULT 9,0 days 00:00:39.000000000
322,2019-06-10 13:57:23,FAULT 7,0 days 00:00:38.000000000
323,2019-06-02 20:42:04,FAULT 6,0 days 00:00:37.000000000
324,2019-06-09 20:08:33,FAULT 2,0 days 00:00:37.000000000
325,2019-06-09 20:09:18,FAULT 2,0 days 00:00:35.000000000
326,2019-06-06 06:06:22,FAULT 2,0 days 00:00:35.000000000
327,2019-05-27 11:57:53,FAULT 2,0 days 00:00:34.000000000
328,2019-05-30 11:37:30,FAULT 8,0 days 00:00:34.000000000
329,2019-06-09 20:01:50,FAULT 2,0 days 00:00:31.000000000
330,2019-06-06 05:58:11,FAULT 2,0 days 00:00:31.000000000
331,2019-06-08 21:19:52,FAULT 4,0 days 00:00:31.000000000
332,2019-06-05 05:04:55,FAULT 8,0 days 00:00:30.000000000
333,2019-05-30 15:23:08,FAULT 7,0 days 00:00:30.000000000
334,2019-06-05 03:28:48,FAULT 7,0 days 00:00:29.000000000
335,2019-06-05 04:39:52,FAULT 8,0 days 00:00:28.000000000
336,2019-06-05 04:43:25,FAULT 8,0 days 00:00:28.000000000
337,2019-06-11 08:28:40,FAULT 4,0 days 00:00:28.000000000
338,2019-06-09 16:10:35,FAULT 7,0 days 00:00:26.000000000
339,2019-06-09 19:59:47,FAULT 2,0 days 00:00:26.000000000
340,2019-06-09 20:06:03,FAULT 2,0 days 00:00:25.000000000
341,2019-06-06 04:47:27,FAULT 4,0 days 00:00:25.000000000
342,2019-06-01 10:12:38,FAULT 7,0 days 00:00:24.000000000
343,2019-06-09 20:07:54,FAULT 2,0 days 00:00:24.000000000
344,2019-06-06 05:49:05,FAULT 8,0 days 00:00:24.000000000
345,2019-06-06 06:13:43,FAULT 4,0 days 00:00:24.000000000
346,2019-05-27 03:58:19,FAULT 7,0 days 00:00:23.000000000
347,2019-06-02 16:02:05,FAULT 1,0 days 00:00:23.000000000
348,2019-06-03 00:10:19,FAULT 1,0 days 00:00:23.000000000
349,2019-06-01 10:13:01,FAULT 7,0 days 00:00:23.000000000
350,2019-06-06 06:05:44,FAULT 2,0 days 00:00:22.000000000
351,2019-05-27 13:27:17,FAULT 1,0 days 00:00:22.000000000
352,2019-06-05 04:29:52,FAULT 1,0 days 00:00:21.000000000
353,2019-06-06 06:14:04,FAULT 4,0 days 00:00:21.000000000
354,2019-05-27 11:23:11,FAULT 2,0 days 00:00:20.000000000
355,2019-06-06 06:08:51,FAULT 2,0 days 00:00:20.000000000
356,2019-06-03 02:12:11,FAULT 7,0 days 00:00:20.000000000
357,2019-06-07 10:00:45,FAULT 1,0 days 00:00:19.000000000
358,2019-05-31 23:29:13,FAULT 6,0 days 00:00:18.000000000
359,2019-06-05 04:40:10,FAULT 2,0 days 00:00:18.000000000
360,2019-06-02 16:06:14,FAULT 1,0 days 00:00:17.000000000
361,2019-05-30 11:32:30,FAULT 8,0 days 00:00:17.000000000
362,2019-05-27 18:13:27,FAULT 1,0 days 00:00:16.000000000
363,2019-06-04 14:59:27,FAULT 7,0 days 00:00:16.000000000
364,2019-06-02 03:43:01,FAULT 6,0 days 00:00:16.000000000
365,2019-06-09 20:06:30,FAULT 2,0 days 00:00:15.000000000
366,2019-06-09 20:07:02,FAULT 2,0 days 00:00:15.000000000
367,2019-05-28 11:18:42,FAULT 6,0 days 00:00:14.000000000
368,2019-06-04 22:04:21,FAULT 7,0 days 00:00:14.000000000
369,2019-05-30 11:32:13,FAULT 8,0 days 00:00:14.000000000
370,2019-06-03 16:40:02,FAULT 1,0 days 00:00:14.000000000
371,2019-06-03 13:14:52,FAULT 1,0 days 00:00:13.000000000
372,2019-06-03 00:10:32,FAULT 1,0 days 00:00:13.000000000
373,2019-06-03 09:07:27,FAULT 9,0 days 00:00:13.000000000
374,2019-06-09 16:10:04,FAULT 7,0 days 00:00:12.000000000
375,2019-06-09 20:06:15,FAULT 2,0 days 00:00:12.000000000
376,2019-06-02 08:01:18,FAULT 6,0 days 00:00:12.000000000
377,2019-05-30 02:37:54,FAULT 1,0 days 00:00:12.000000000
378,2019-06-09 18:37:44,FAULT 7,0 days 00:00:12.000000000
379,2019-06-06 06:08:31,FAULT 2,0 days 00:00:11.000000000
380,2019-05-27 11:56:24,FAULT 2,0 days 00:00:11.000000000
381,2019-06-09 20:07:13,FAULT 2,0 days 00:00:11.000000000
382,2019-06-01 23:26:21,FAULT 7,0 days 00:00:11.000000000
383,2019-06-08 16:51:25,FAULT 7,0 days 00:00:10.000000000
384,2019-06-01 17:30:56,FAULT 6,0 days 00:00:10.000000000
385,2019-06-09 19:29:26,FAULT 1,0 days 00:00:10.000000000
386,2019-06-01 16:38:40,FAULT 7,0 days 00:00:10.000000000
387,2019-05-28 02:55:41,FAULT 7,0 days 00:00:10.000000000
388,2019-06-09 20:08:43,FAULT 2,0 days 00:00:10.000000000
389,2019-06-09 19:59:16,FAULT 2,0 days 00:00:09.000000000
390,2019-06-06 06:54:06,FAULT 1,0 days 00:00:09.000000000
391,2019-06-04 17:08:37,FAULT 7,0 days 00:00:09.000000000
392,2019-06-09 20:05:38,FAULT 2,0 days 00:00:09.000000000
393,2019-06-04 12:15:07,FAULT 7,0 days 00:00:09.000000000
394,2019-06-02 16:06:23,FAULT 1,0 days 00:00:09.000000000
395,2019-05-27 11:57:17,FAULT 2,0 days 00:00:09.000000000
396,2019-05-30 13:45:28,FAULT 9,0 days 00:00:09.000000000
397,2019-06-09 20:07:27,FAULT 2,0 days 00:00:08.000000000
398,2019-06-03 09:02:28,FAULT 7,0 days 00:00:08.000000000
399,2019-06-01 20:53:22,FAULT 8,0 days 00:00:08.000000000
400,2019-06-03 15:07:23,FAULT 1,0 days 00:00:08.000000000
401,2019-05-30 02:18:41,FAULT 7,0 days 00:00:08.000000000
402,2019-05-30 13:43:39,FAULT 7,0 days 00:00:07.000000000
403,2019-05-28 05:46:30,FAULT 7,0 days 00:00:07.000000000
404,2019-05-29 20:04:31,FAULT 7,0 days 00:00:07.000000000
405,2019-06-01 16:38:30,FAULT 7,0 days 00:00:07.000000000
406,2019-05-30 06:10:28,FAULT 9,0 days 00:00:07.000000000
407,2019-06-09 20:04:47,FAULT 2,0 days 00:00:07.000000000
408,2019-06-02 16:14:14,FAULT 1,0 days 00:00:06.000000000
409,2019-06-09 20:07:19,FAULT 2,0 days 00:00:06.000000000
410,2019-06-09 20:02:56,FAULT 2,0 days 00:00:06.000000000
411,2019-05-27 11:57:59,FAULT 2,0 days 00:00:06.000000000
412,2019-06-09 20:06:39,FAULT 2,0 days 00:00:06.000000000
413,2019-06-06 06:05:22,FAULT 2,0 days 00:00:06.000000000
414,2019-05-30 13:45:19,FAULT 9,0 days 00:00:06.000000000
415,2019-06-03 16:40:08,FAULT 1,0 days 00:00:06.000000000
416,2019-05-28 15:44:48,FAULT 7,0 days 00:00:05.000000000
417,2019-06-09 20:06:46,FAULT 2,0 days 00:00:05.000000000
418,2019-06-04 00:56:29,FAULT 1,0 days 00:00:05.000000000
419,2019-06-06 05:08:29,FAULT 9,0 days 00:00:05.000000000
420,2019-06-01 11:03:13,FAULT 1,0 days 00:00:05.000000000
421,2019-06-03 15:07:15,FAULT 1,0 days 00:00:05.000000000
422,2019-06-09 19:27:53,FAULT 8,0 days 00:00:05.000000000
423,2019-05-28 11:51:03,FAULT 1,0 days 00:00:05.000000000
424,2019-06-03 13:14:39,FAULT 1,0 days 00:00:05.000000000
425,2019-05-28 01:11:32,FAULT 1,0 days 00:00:05.000000000
426,2019-06-09 16:10:09,FAULT 7,0 days 00:00:05.000000000
427,2019-06-09 19:59:21,FAULT 2,0 days 00:00:05.000000000
428,2019-05-27 13:26:55,FAULT 1,0 days 00:00:05.000000000
429,2019-06-04 14:59:11,FAULT 1,0 days 00:00:04.000000000
430,2019-05-27 11:56:13,FAULT 2,0 days 00:00:04.000000000
431,2019-06-07 14:33:09,FAULT 1,0 days 00:00:04.000000000
432,2019-06-04 07:37:19,FAULT 1,0 days 00:00:04.000000000
433,2019-06-02 16:02:09,FAULT 1,0 days 00:00:04.000000000
434,2019-06-06 06:13:19,FAULT 4,0 days 00:00:04.000000000
435,2019-05-30 14:24:17,FAULT 4,0 days 00:00:04.000000000
436,2019-06-02 16:14:22,FAULT 1,0 days 00:00:04.000000000
437,2019-06-09 19:59:51,FAULT 2,0 days 00:00:04.000000000
438,2019-05-28 18:20:10,FAULT 1,0 days 00:00:04.000000000
439,2019-06-11 00:36:27,FAULT 1,0 days 00:00:04.000000000
440,2019-06-09 20:04:00,FAULT 2,0 days 00:00:04.000000000
441,2019-06-06 06:07:36,FAULT 2,0 days 00:00:04.000000000
442,2019-06-09 20:09:28,FAULT 2,0 days 00:00:04.000000000
443,2019-06-09 20:01:54,FAULT 2,0 days 00:00:04.000000000
444,2019-06-01 00:56:09,FAULT 7,0 days 00:00:03.000000000
445,2019-06-02 14:42:19,FAULT 7,0 days 00:00:03.000000000
446,2019-06-02 16:14:17,FAULT 1,0 days 00:00:03.000000000
447,2019-05-31 20:03:09,FAULT 7,0 days 00:00:03.000000000
448,2019-06-07 14:30:55,FAULT 1,0 days 00:00:03.000000000
449,2019-05-29 19:27:14,FAULT 7,0 days 00:00:03.000000000
450,2019-05-30 23:21:57,FAULT 7,0 days 00:00:03.000000000
451,2019-06-03 03:40:11,FAULT 7,0 days 00:00:03.000000000
452,2019-06-09 20:09:22,FAULT 2,0 days 00:00:03.000000000
453,2019-06-09 19:59:54,FAULT 2,0 days 00:00:03.000000000
454,2019-06-09 20:07:30,FAULT 2,0 days 00:00:03.000000000
455,2019-06-06 06:05:47,FAULT 2,0 days 00:00:03.000000000
456,2019-06-06 05:56:02,FAULT 2,0 days 00:00:03.000000000
457,2019-06-09 20:06:33,FAULT 2,0 days 00:00:03.000000000
458,2019-05-27 11:56:27,FAULT 2,0 days 00:00:03.000000000
459,2019-06-05 03:29:46,FAULT 7,0 days 00:00:03.000000000
460,2019-05-28 03:01:19,FAULT 7,0 days 00:00:03.000000000
461,2019-05-30 03:48:32,FAULT 1,0 days 00:00:02.000000000
462,2019-06-09 20:07:56,FAULT 2,0 days 00:00:02.000000000
463,2019-06-09 20:06:41,FAULT 2,0 days 00:00:02.000000000
464,2019-05-27 11:57:19,FAULT 2,0 days 00:00:02.000000000
465,2019-06-02 16:06:25,FAULT 1,0 days 00:00:02.000000000
466,2019-06-06 06:07:38,FAULT 2,0 days 00:00:02.000000000
467,2019-05-28 01:55:40,FAULT 9,0 days 00:00:02.000000000
468,2019-06-06 06:08:20,FAULT 2,0 days 00:00:02.000000000
469,2019-06-06 06:08:53,FAULT 2,0 days 00:00:02.000000000
470,2019-06-09 20:09:24,FAULT 2,0 days 00:00:02.000000000
471,2019-06-02 16:14:24,FAULT 1,0 days 00:00:02.000000000
472,2019-06-06 06:06:24,FAULT 2,0 days 00:00:02.000000000
473,2019-06-09 22:46:28,FAULT 7,0 days 00:00:02.000000000
474,2019-06-02 16:07:32,FAULT 1,0 days 00:00:02.000000000
475,2019-06-06 06:07:32,FAULT 2,0 days 00:00:02.000000000
476,2019-05-27 11:56:29,FAULT 2,0 days 00:00:02.000000000
477,2019-06-02 16:05:57,FAULT 1,0 days 00:00:02.000000000
478,2019-05-29 22:19:06,FAULT 9,0 days 00:00:02.000000000
479,2019-06-09 20:06:47,FAULT 2,0 days 00:00:01.000000000
480,2019-06-08 15:56:11,FAULT 1,0 days 00:00:01.000000000
481,2019-05-30 13:43:32,FAULT 7,0 days 00:00:01.000000000
482,2019-06-09 20:09:19,FAULT 2,0 days 00:00:01.000000000
483,2019-06-08 15:31:30,FAULT 8,0 days 00:00:01.000000000
484,2019-06-06 05:54:49,FAULT 2,0 days 00:00:01.000000000
485,2019-06-09 21:27:45,FAULT 7,0 days 00:00:01.000000000
486,2019-06-02 16:14:18,FAULT 1,0 days 00:00:01.000000000
487,2019-05-27 11:57:53,FAULT 2,0 days 00:00:00.000000000
488,2019-06-11 04:27:22,FAULT 4,0 days 00:00:00.000000000
489,2019-06-11 05:47:31,FAULT 1,0 days 00:00:00.000000000
490,2019-06-11 04:06:21,FAULT 5,0 days 00:00:00.000000000
491,2019-06-11 03:47:46,FAULT 8,0 days 00:00:00.000000000
492,2019-06-11 05:47:31,FAULT 5,0 days 00:00:00.000000000
493,2019-05-27 11:31:32,FAULT 1,0 days 00:00:00.000000000
494,2019-06-09 20:07:27,FAULT 2,0 days 00:00:00.000000000
495,2019-06-09 20:06:46,FAULT 2,0 days 00:00:00.000000000
496,2019-06-11 00:36:23,FAULT 1,0 days 00:00:00.000000000
497,2019-06-11 08:28:12,FAULT 4,0 days 00:00:00.000000000
498,2019-06-09 20:09:22,FAULT 2,0 days 00:00:00.000000000
499,2019-06-09 20:07:54,FAULT 2,0 days 00:00:00.000000000
500,2019-05-30 04:52:28,FAULT 1,0 days 00:00:00.000000000
501,2019-05-28 02:55:31,FAULT 7,0 days 00:00:00.000000000
502,2019-05-28 03:01:16,FAULT 7,0 days 00:00:00.000000000
503,2019-06-10 21:34:34,FAULT 4,0 days 00:00:00.000000000
504,2019-05-28 04:31:44,FAULT 1,0 days 00:00:00.000000000
505,2019-05-28 04:31:44,FAULT 7,0 days 00:00:00.000000000
506,2019-05-28 04:31:44,FAULT 9,0 days 00:00:00.000000000
507,2019-05-28 14:33:08,FAULT 1,0 days 00:00:00.000000000
508,2019-06-10 05:27:23,FAULT 7,0 days 00:00:00.000000000
509,2019-06-09 22:46:28,FAULT 9,0 days 00:00:00.000000000
510,2019-06-09 20:08:33,FAULT 2,0 days 00:00:00.000000000
511,2019-05-29 20:04:24,FAULT 7,0 days 00:00:00.000000000
512,2019-05-30 03:26:45,FAULT 7,0 days 00:00:00.000000000
513,2019-06-09 20:09:18,FAULT 2,0 days 00:00:00.000000000
514,2019-05-30 00:29:36,FAULT 9,0 days 00:00:00.000000000
515,2019-06-05 04:45:12,FAULT 2,0 days 00:00:00.000000000
516,2019-06-01 08:30:16,FAULT 4,0 days 00:00:00.000000000
517,2019-06-09 20:06:39,FAULT 2,0 days 00:00:00.000000000
518,2019-06-03 09:39:27,FAULT 4,0 days 00:00:00.000000000
519,2019-06-06 06:05:44,FAULT 2,0 days 00:00:00.000000000
520,2019-06-06 06:06:22,FAULT 2,0 days 00:00:00.000000000
521,2019-06-06 06:07:30,FAULT 2,0 days 00:00:00.000000000
522,2019-06-06 06:07:36,FAULT 2,0 days 00:00:00.000000000
523,2019-06-03 09:39:27,FAULT 3,0 days 00:00:00.000000000
524,2019-06-06 06:08:18,FAULT 2,0 days 00:00:00.000000000
525,2019-06-06 06:13:15,FAULT 4,0 days 00:00:00.000000000
526,2019-06-03 13:14:52,FAULT 6,0 days 00:00:00.000000000
527,2019-06-03 09:39:27,FAULT 6,0 days 00:00:00.000000000
528,2019-06-06 06:13:43,FAULT 4,0 days 00:00:00.000000000
529,2019-06-03 09:39:27,FAULT 9,0 days 00:00:00.000000000
530,2019-06-03 09:20:21,FAULT 4,0 days 00:00:00.000000000
531,2019-06-03 09:02:20,FAULT 7,0 days 00:00:00.000000000
532,2019-06-03 08:27:34,FAULT 6,0 days 00:00:00.000000000
533,2019-06-06 06:05:16,FAULT 2,0 days 00:00:00.000000000
534,2019-06-03 13:14:52,FAULT 7,0 days 00:00:00.000000000
535,2019-06-09 20:06:30,FAULT 2,0 days 00:00:00.000000000
536,2019-06-04 14:59:27,FAULT 1,0 days 00:00:00.000000000
537,2019-06-05 04:07:52,FAULT 7,0 days 00:00:00.000000000
538,2019-06-05 03:37:21,FAULT 7,0 days 00:00:00.000000000
539,2019-06-05 13:13:15,FAULT 4,0 days 00:00:00.000000000
540,2019-06-05 03:29:43,FAULT 7,0 days 00:00:00.000000000
541,2019-06-05 03:28:19,FAULT 7,0 days 00:00:00.000000000
542,2019-06-04 22:04:07,FAULT 7,0 days 00:00:00.000000000
543,2019-06-04 14:59:07,FAULT 1,0 days 00:00:00.000000000
544,2019-06-06 05:57:40,FAULT 2,0 days 00:00:00.000000000
545,2019-06-04 03:20:02,FAULT 8,0 days 00:00:00.000000000
546,2019-06-04 01:16:33,FAULT 1,0 days 00:00:00.000000000
547,2019-06-06 05:50:39,FAULT 1,0 days 00:00:00.000000000
548,2019-06-06 05:50:39,FAULT 8,0 days 00:00:00.000000000
549,2019-06-03 15:07:23,FAULT 7,0 days 00:00:00.000000000
550,2019-06-06 05:55:59,FAULT 2,0 days 00:00:00.000000000
551,2019-06-03 06:53:22,FAULT 6,0 days 00:00:00.000000000
552,2019-06-06 08:14:48,FAULT 4,0 days 00:00:00.000000000
553,2019-06-03 00:10:32,FAULT 8,0 days 00:00:00.000000000
554,2019-05-30 13:43:32,FAULT 7,0 days 00:00:00.000000000
555,2019-05-31 23:29:13,FAULT 7,0 days 00:00:00.000000000
556,2019-05-31 20:27:14,FAULT 4,0 days 00:00:00.000000000
557,2019-05-30 18:53:58,FAULT 4,0 days 00:00:00.000000000
558,2019-06-09 19:13:46,FAULT 7,0 days 00:00:00.000000000
559,2019-06-09 19:59:21,FAULT 8,0 days 00:00:00.000000000
560,2019-06-09 19:59:21,FAULT 1,0 days 00:00:00.000000000
561,2019-05-30 11:32:13,FAULT 8,0 days 00:00:00.000000000
562,2019-06-03 00:09:56,FAULT 1,0 days 00:00:00.000000000
563,2019-06-09 20:03:56,FAULT 2,0 days 00:00:00.000000000
564,2019-05-30 10:51:37,FAULT 8,0 days 00:00:00.000000000
565,2019-06-09 20:04:40,FAULT 2,0 days 00:00:00.000000000
566,2019-05-30 08:32:56,FAULT 4,0 days 00:00:00.000000000
567,2019-06-09 20:05:29,FAULT 2,0 days 00:00:00.000000000
568,2019-06-09 20:06:03,FAULT 2,0 days 00:00:00.000000000
569,2019-06-01 08:30:16,FAULT 8,0 days 00:00:00.000000000
570,2019-06-09 03:02:03,FAULT 4,0 days 00:00:00.000000000
571,2019-06-01 15:56:00,FAULT 1,0 days 00:00:00.000000000
572,2019-06-01 17:30:56,FAULT 7,0 days 00:00:00.000000000
573,2019-06-01 20:54:08,FAULT 8,0 days 00:00:00.000000000
574,2019-06-01 21:15:29,FAULT 8,0 days 00:00:00.000000000
575,2019-06-02 03:42:45,FAULT 6,0 days 00:00:00.000000000
576,2019-06-02 12:33:28,FAULT 4,0 days 00:00:00.000000000
577,2019-06-08 15:31:29,FAULT 5,0 days 00:00:00.000000000
578,2019-06-02 16:04:39,FAULT 7,0 days 00:00:00.000000000
579,2019-06-02 16:04:39,FAULT 6,0 days 00:00:00.000000000
580,2019-06-07 14:33:05,FAULT 1,0 days 00:00:00.000000000
581,2019-06-02 16:07:30,FAULT 1,0 days 00:00:00.000000000
582,2019-06-02 16:14:17,FAULT 1,0 days 00:00:00.000000000
583,2019-06-07 09:27:43,FAULT 8,0 days 00:00:00.000000000
584,2019-06-02 16:14:22,FAULT 1,0 days 00:00:00.000000000
585,2019-06-02 20:41:27,FAULT 6,0 days 00:00:00.000000000
586,2019-06-11 13:43:26,FAULT 4,0 days 00:00:00.000000000
587,2019-05-27 03:57:56,FAULT 7,
